%YAML 1.1
%TAG !u! tag:unity3d.com,2011:
--- !u!114 &11400000
MonoBehaviour:
  m_ObjectHideFlags: 0
  m_CorrespondingSourceObject: {fileID: 0}
  m_PrefabInstance: {fileID: 0}
  m_PrefabAsset: {fileID: 0}
  m_GameObject: {fileID: 0}
  m_Enabled: 1
  m_EditorHideFlags: 0
  m_Script: {fileID: 11500000, guid: 16c12e159c3184f1584350c5b9295430, type: 3}
  m_Name: Character_Destroyed
  m_EditorClassIdentifier: 
  _developerDescription: 
  _replayBufferSize: 0
  _inspectorRaiseValue: {fileID: 0}
