%YAML 1.1
%TAG !u! tag:unity3d.com,2011:
--- !u!1 &6559145621683823563
GameObject:
  m_ObjectHideFlags: 0
  m_CorrespondingSourceObject: {fileID: 0}
  m_PrefabInstance: {fileID: 0}
  m_PrefabAsset: {fileID: 0}
  serializedVersion: 6
  m_Component:
  - component: {fileID: 6513121010803424834}
  - component: {fileID: 5285072794697494767}
  m_Layer: 6
  m_Name: Hat
  m_TagString: Untagged
  m_Icon: {fileID: 3936346786652291628, guid: 0000000000000000d000000000000000, type: 0}
  m_NavMeshLayer: 0
  m_StaticEditorFlags: 0
  m_IsActive: 1
--- !u!4 &6513121010803424834
Transform:
  m_ObjectHideFlags: 0
  m_CorrespondingSourceObject: {fileID: 0}
  m_PrefabInstance: {fileID: 0}
  m_PrefabAsset: {fileID: 0}
  m_GameObject: {fileID: 6559145621683823563}
  m_LocalRotation: {x: 0, y: 0, z: 0, w: 1}
  m_LocalPosition: {x: -0.405, y: 1.89, z: 0}
  m_LocalScale: {x: 1, y: 1, z: 1}
  m_ConstrainProportionsScale: 0
  m_Children:
  - {fileID: 676918594969115258}
  m_Father: {fileID: 3345656352466467715}
  m_RootOrder: 2
  m_LocalEulerAnglesHint: {x: 0, y: 0, z: 0}
--- !u!114 &5285072794697494767
MonoBehaviour:
  m_ObjectHideFlags: 0
  m_CorrespondingSourceObject: {fileID: 0}
  m_PrefabInstance: {fileID: 0}
  m_PrefabAsset: {fileID: 0}
  m_GameObject: {fileID: 6559145621683823563}
  m_Enabled: 1
  m_EditorHideFlags: 0
  m_Script: {fileID: 11500000, guid: 44566b2b97c3f1e4ca0784cb38c47c66, type: 3}
  m_Name: 
  m_EditorClassIdentifier: 
  m_CurrentHat: none
  m_PossibleHats: []
  m_Head: {fileID: 5294547428429929720}
--- !u!1001 &1156062627073423462
PrefabInstance:
  m_ObjectHideFlags: 0
  serializedVersion: 2
  m_Modification:
    m_TransformParent: {fileID: 6513121010803424834}
    m_Modifications:
    - target: {fileID: 1832909204003578396, guid: afb909ce507c8554db0647f6aed330bf, type: 3}
      propertyPath: m_RootOrder
      value: 0
      objectReference: {fileID: 0}
    - target: {fileID: 1832909204003578396, guid: afb909ce507c8554db0647f6aed330bf, type: 3}
      propertyPath: m_LocalPosition.x
      value: 0
      objectReference: {fileID: 0}
    - target: {fileID: 1832909204003578396, guid: afb909ce507c8554db0647f6aed330bf, type: 3}
      propertyPath: m_LocalPosition.y
      value: 0
      objectReference: {fileID: 0}
    - target: {fileID: 1832909204003578396, guid: afb909ce507c8554db0647f6aed330bf, type: 3}
      propertyPath: m_LocalPosition.z
      value: 0
      objectReference: {fileID: 0}
    - target: {fileID: 1832909204003578396, guid: afb909ce507c8554db0647f6aed330bf, type: 3}
      propertyPath: m_LocalRotation.w
      value: 1
      objectReference: {fileID: 0}
    - target: {fileID: 1832909204003578396, guid: afb909ce507c8554db0647f6aed330bf, type: 3}
      propertyPath: m_LocalRotation.x
      value: 0
      objectReference: {fileID: 0}
    - target: {fileID: 1832909204003578396, guid: afb909ce507c8554db0647f6aed330bf, type: 3}
      propertyPath: m_LocalRotation.y
      value: 0
      objectReference: {fileID: 0}
    - target: {fileID: 1832909204003578396, guid: afb909ce507c8554db0647f6aed330bf, type: 3}
      propertyPath: m_LocalRotation.z
      value: 0
      objectReference: {fileID: 0}
    - target: {fileID: 1832909204003578396, guid: afb909ce507c8554db0647f6aed330bf, type: 3}
      propertyPath: m_LocalEulerAnglesHint.x
      value: 0
      objectReference: {fileID: 0}
    - target: {fileID: 1832909204003578396, guid: afb909ce507c8554db0647f6aed330bf, type: 3}
      propertyPath: m_LocalEulerAnglesHint.y
      value: 0
      objectReference: {fileID: 0}
    - target: {fileID: 1832909204003578396, guid: afb909ce507c8554db0647f6aed330bf, type: 3}
      propertyPath: m_LocalEulerAnglesHint.z
      value: 0
      objectReference: {fileID: 0}
    - target: {fileID: 6399398406253847544, guid: afb909ce507c8554db0647f6aed330bf, type: 3}
      propertyPath: m_Name
      value: PartyHat
      objectReference: {fileID: 0}
    - target: {fileID: 6399398406253847544, guid: afb909ce507c8554db0647f6aed330bf, type: 3}
      propertyPath: m_IsActive
      value: 0
      objectReference: {fileID: 0}
    m_RemovedComponents: []
  m_SourcePrefab: {fileID: 100100000, guid: afb909ce507c8554db0647f6aed330bf, type: 3}
--- !u!4 &676918594969115258 stripped
Transform:
  m_CorrespondingSourceObject: {fileID: 1832909204003578396, guid: afb909ce507c8554db0647f6aed330bf, type: 3}
  m_PrefabInstance: {fileID: 1156062627073423462}
  m_PrefabAsset: {fileID: 0}
--- !u!1001 &5171227752169666152
PrefabInstance:
  m_ObjectHideFlags: 0
  serializedVersion: 2
  m_Modification:
    m_TransformParent: {fileID: 0}
    m_Modifications:
    - target: {fileID: 1289189455, guid: 6ac263661e4cf8c48947fd3159a3ba58, type: 3}
      propertyPath: m_IsActive
      value: 1
      objectReference: {fileID: 0}
    - target: {fileID: 1289189457, guid: 6ac263661e4cf8c48947fd3159a3ba58, type: 3}
      propertyPath: m_LocalPosition.x
      value: 0.0000006854534
      objectReference: {fileID: 0}
    - target: {fileID: 1289189457, guid: 6ac263661e4cf8c48947fd3159a3ba58, type: 3}
      propertyPath: m_LocalPosition.z
      value: -10.000002
      objectReference: {fileID: 0}
    - target: {fileID: 1289189457, guid: 6ac263661e4cf8c48947fd3159a3ba58, type: 3}
      propertyPath: m_LocalRotation.w
      value: 0.9966265
      objectReference: {fileID: 0}
    - target: {fileID: 1289189457, guid: 6ac263661e4cf8c48947fd3159a3ba58, type: 3}
      propertyPath: m_LocalRotation.x
      value: -0.082071766
      objectReference: {fileID: 0}
    - target: {fileID: 1289189457, guid: 6ac263661e4cf8c48947fd3159a3ba58, type: 3}
      propertyPath: m_LocalRotation.y
      value: -0.00000011920929
      objectReference: {fileID: 0}
    - target: {fileID: 1289189457, guid: 6ac263661e4cf8c48947fd3159a3ba58, type: 3}
      propertyPath: m_LocalRotation.z
      value: -0.000000007450581
      objectReference: {fileID: 0}
    - target: {fileID: 2009803951, guid: 6ac263661e4cf8c48947fd3159a3ba58, type: 3}
      propertyPath: m_Name
      value: Effects
      objectReference: {fileID: 0}
    - target: {fileID: 2009803952, guid: 6ac263661e4cf8c48947fd3159a3ba58, type: 3}
      propertyPath: m_RootOrder
      value: 0
      objectReference: {fileID: 0}
    - target: {fileID: 1061133086809451152, guid: 6ac263661e4cf8c48947fd3159a3ba58, type: 3}
      propertyPath: m_RootOrder
      value: 3
      objectReference: {fileID: 0}
    - target: {fileID: 1114928914988804812, guid: 6ac263661e4cf8c48947fd3159a3ba58, type: 3}
      propertyPath: m_IsActive
      value: 0
      objectReference: {fileID: 0}
    - target: {fileID: 2505435118483560403, guid: 6ac263661e4cf8c48947fd3159a3ba58, type: 3}
      propertyPath: m_RootOrder
      value: 1
      objectReference: {fileID: 0}
    - target: {fileID: 3032161264613087381, guid: 6ac263661e4cf8c48947fd3159a3ba58, type: 3}
      propertyPath: m_GroundLayers.m_Bits
      value: 385
      objectReference: {fileID: 0}
    - target: {fileID: 3273269923708946028, guid: 6ac263661e4cf8c48947fd3159a3ba58, type: 3}
      propertyPath: m_LocalPosition.y
      value: -0.78
      objectReference: {fileID: 0}
    - target: {fileID: 4550455896784943466, guid: 6ac263661e4cf8c48947fd3159a3ba58, type: 3}
      propertyPath: m_LocalPosition.x
      value: -0.12
      objectReference: {fileID: 0}
    - target: {fileID: 4550455896784943466, guid: 6ac263661e4cf8c48947fd3159a3ba58, type: 3}
      propertyPath: m_LocalPosition.z
      value: -0
      objectReference: {fileID: 0}
    - target: {fileID: 4550455896784943466, guid: 6ac263661e4cf8c48947fd3159a3ba58, type: 3}
      propertyPath: m_LocalRotation.w
      value: 1
      objectReference: {fileID: 0}
    - target: {fileID: 4550455896784943466, guid: 6ac263661e4cf8c48947fd3159a3ba58, type: 3}
      propertyPath: m_LocalRotation.x
      value: 0
      objectReference: {fileID: 0}
    - target: {fileID: 4550455896784943466, guid: 6ac263661e4cf8c48947fd3159a3ba58, type: 3}
      propertyPath: m_LocalRotation.y
      value: 0
      objectReference: {fileID: 0}
    - target: {fileID: 4550455896784943466, guid: 6ac263661e4cf8c48947fd3159a3ba58, type: 3}
      propertyPath: m_LocalRotation.z
      value: 0
      objectReference: {fileID: 0}
    - target: {fileID: 4550455896784943466, guid: 6ac263661e4cf8c48947fd3159a3ba58, type: 3}
      propertyPath: m_LocalEulerAnglesHint.x
      value: 0
      objectReference: {fileID: 0}
    - target: {fileID: 4550455896784943466, guid: 6ac263661e4cf8c48947fd3159a3ba58, type: 3}
      propertyPath: m_LocalEulerAnglesHint.y
      value: 0
      objectReference: {fileID: 0}
    - target: {fileID: 4550455896784943466, guid: 6ac263661e4cf8c48947fd3159a3ba58, type: 3}
      propertyPath: m_LocalEulerAnglesHint.z
      value: 0
      objectReference: {fileID: 0}
    - target: {fileID: 6542079319371145381, guid: 6ac263661e4cf8c48947fd3159a3ba58, type: 3}
      propertyPath: m_Name
      value: LookAtTarget
      objectReference: {fileID: 0}
    - target: {fileID: 7614967428711631637, guid: 6ac263661e4cf8c48947fd3159a3ba58, type: 3}
      propertyPath: m_AvoidObstacles
      value: 1
      objectReference: {fileID: 0}
    - target: {fileID: 7614967428711631637, guid: 6ac263661e4cf8c48947fd3159a3ba58, type: 3}
      propertyPath: m_CollideAgainst.m_Bits
      value: 384
      objectReference: {fileID: 0}
    - target: {fileID: 7614967429340073445, guid: 6ac263661e4cf8c48947fd3159a3ba58, type: 3}
      propertyPath: m_DynamicOccludee
      value: 0
      objectReference: {fileID: 0}
    - target: {fileID: 7614967429340073447, guid: 6ac263661e4cf8c48947fd3159a3ba58, type: 3}
      propertyPath: m_Name
      value: DisconeCharacter
      objectReference: {fileID: 0}
    - target: {fileID: 7614967429340073447, guid: 6ac263661e4cf8c48947fd3159a3ba58, type: 3}
      propertyPath: m_TagString
      value: Character
      objectReference: {fileID: 0}
    - target: {fileID: 7614967429340073450, guid: 6ac263661e4cf8c48947fd3159a3ba58, type: 3}
      propertyPath: m_Controller.m_GroundedGravity
      value: 0.042
      objectReference: {fileID: 0}
    - target: {fileID: 7614967429340073451, guid: 6ac263661e4cf8c48947fd3159a3ba58, type: 3}
      propertyPath: m_RootOrder
      value: 0
      objectReference: {fileID: 0}
    - target: {fileID: 7614967429340073451, guid: 6ac263661e4cf8c48947fd3159a3ba58, type: 3}
      propertyPath: m_LocalPosition.x
      value: -87.7
      objectReference: {fileID: 0}
    - target: {fileID: 7614967429340073451, guid: 6ac263661e4cf8c48947fd3159a3ba58, type: 3}
      propertyPath: m_LocalPosition.y
      value: 113.21
      objectReference: {fileID: 0}
    - target: {fileID: 7614967429340073451, guid: 6ac263661e4cf8c48947fd3159a3ba58, type: 3}
      propertyPath: m_LocalPosition.z
      value: -30.7
      objectReference: {fileID: 0}
    - target: {fileID: 7614967429340073451, guid: 6ac263661e4cf8c48947fd3159a3ba58, type: 3}
      propertyPath: m_LocalRotation.w
      value: 0.7184785
      objectReference: {fileID: 0}
    - target: {fileID: 7614967429340073451, guid: 6ac263661e4cf8c48947fd3159a3ba58, type: 3}
      propertyPath: m_LocalRotation.x
      value: 0
      objectReference: {fileID: 0}
    - target: {fileID: 7614967429340073451, guid: 6ac263661e4cf8c48947fd3159a3ba58, type: 3}
      propertyPath: m_LocalRotation.y
      value: -0.69554925
      objectReference: {fileID: 0}
    - target: {fileID: 7614967429340073451, guid: 6ac263661e4cf8c48947fd3159a3ba58, type: 3}
      propertyPath: m_LocalRotation.z
      value: 0
      objectReference: {fileID: 0}
    - target: {fileID: 7614967429340073451, guid: 6ac263661e4cf8c48947fd3159a3ba58, type: 3}
      propertyPath: m_LocalEulerAnglesHint.x
      value: 0
      objectReference: {fileID: 0}
    - target: {fileID: 7614967429340073451, guid: 6ac263661e4cf8c48947fd3159a3ba58, type: 3}
      propertyPath: m_LocalEulerAnglesHint.y
      value: -88.142
      objectReference: {fileID: 0}
    - target: {fileID: 7614967429340073451, guid: 6ac263661e4cf8c48947fd3159a3ba58, type: 3}
      propertyPath: m_LocalEulerAnglesHint.z
      value: 0
      objectReference: {fileID: 0}
    - target: {fileID: 7736594804511770898, guid: 6ac263661e4cf8c48947fd3159a3ba58, type: 3}
      propertyPath: m_Distance_PitchCurve.m_Curve.Array.size
      value: 3
      objectReference: {fileID: 0}
    - target: {fileID: 7736594804511770898, guid: 6ac263661e4cf8c48947fd3159a3ba58, type: 3}
      propertyPath: m_Distance_PitchCurve.m_Curve.Array.data[1].time
      value: 0.48858643
      objectReference: {fileID: 0}
    - target: {fileID: 7736594804511770898, guid: 6ac263661e4cf8c48947fd3159a3ba58, type: 3}
      propertyPath: m_Distance_PitchCurve.m_Curve.Array.data[2].time
      value: 1
      objectReference: {fileID: 0}
    - target: {fileID: 7736594804511770898, guid: 6ac263661e4cf8c48947fd3159a3ba58, type: 3}
      propertyPath: m_Distance_PitchCurve.m_Curve.Array.data[1].value
      value: 0.99728394
      objectReference: {fileID: 0}
    - target: {fileID: 7736594804511770898, guid: 6ac263661e4cf8c48947fd3159a3ba58, type: 3}
      propertyPath: m_Distance_PitchCurve.m_Curve.Array.data[2].value
      value: 0
      objectReference: {fileID: 0}
    - target: {fileID: 7736594804511770898, guid: 6ac263661e4cf8c48947fd3159a3ba58, type: 3}
      propertyPath: m_Distance_PitchCurve.m_Curve.Array.data[0].inSlope
      value: 5.337135
      objectReference: {fileID: 0}
    - target: {fileID: 7736594804511770898, guid: 6ac263661e4cf8c48947fd3159a3ba58, type: 3}
      propertyPath: m_Distance_PitchCurve.m_Curve.Array.data[1].inSlope
      value: 0
      objectReference: {fileID: 0}
    - target: {fileID: 7736594804511770898, guid: 6ac263661e4cf8c48947fd3159a3ba58, type: 3}
      propertyPath: m_Distance_PitchCurve.m_Curve.Array.data[2].inSlope
      value: -5.32876
      objectReference: {fileID: 0}
    - target: {fileID: 7736594804511770898, guid: 6ac263661e4cf8c48947fd3159a3ba58, type: 3}
      propertyPath: m_Distance_PitchCurve.m_Curve.Array.data[0].outSlope
      value: 5.337135
      objectReference: {fileID: 0}
    - target: {fileID: 7736594804511770898, guid: 6ac263661e4cf8c48947fd3159a3ba58, type: 3}
      propertyPath: m_Distance_PitchCurve.m_Curve.Array.data[1].inWeight
      value: 0.21705483
      objectReference: {fileID: 0}
    - target: {fileID: 7736594804511770898, guid: 6ac263661e4cf8c48947fd3159a3ba58, type: 3}
      propertyPath: m_Distance_PitchCurve.m_Curve.Array.data[1].outSlope
      value: 0
      objectReference: {fileID: 0}
    - target: {fileID: 7736594804511770898, guid: 6ac263661e4cf8c48947fd3159a3ba58, type: 3}
      propertyPath: m_Distance_PitchCurve.m_Curve.Array.data[2].inWeight
      value: 0.05284766
      objectReference: {fileID: 0}
    - target: {fileID: 7736594804511770898, guid: 6ac263661e4cf8c48947fd3159a3ba58, type: 3}
      propertyPath: m_Distance_PitchCurve.m_Curve.Array.data[2].outSlope
      value: -5.32876
      objectReference: {fileID: 0}
    - target: {fileID: 7736594804511770898, guid: 6ac263661e4cf8c48947fd3159a3ba58, type: 3}
      propertyPath: m_Distance_PitchCurve.m_Curve.Array.data[0].outWeight
      value: 0.05106164
      objectReference: {fileID: 0}
    - target: {fileID: 7736594804511770898, guid: 6ac263661e4cf8c48947fd3159a3ba58, type: 3}
      propertyPath: m_Distance_PitchCurve.m_Curve.Array.data[1].outWeight
      value: 0.33333334
      objectReference: {fileID: 0}
    - target: {fileID: 7736594804511770898, guid: 6ac263661e4cf8c48947fd3159a3ba58, type: 3}
      propertyPath: m_Distance_PitchCurve.m_Curve.Array.data[2].outWeight
      value: 0
      objectReference: {fileID: 0}
    m_RemovedComponents:
    - {fileID: 7614967429340073445, guid: 6ac263661e4cf8c48947fd3159a3ba58, type: 3}
    - {fileID: 7614967429340073444, guid: 6ac263661e4cf8c48947fd3159a3ba58, type: 3}
  m_SourcePrefab: {fileID: 100100000, guid: 6ac263661e4cf8c48947fd3159a3ba58, type: 3}
--- !u!114 &3215011315793297274 stripped
MonoBehaviour:
  m_CorrespondingSourceObject: {fileID: 7736594804511770898, guid: 6ac263661e4cf8c48947fd3159a3ba58, type: 3}
  m_PrefabInstance: {fileID: 5171227752169666152}
  m_PrefabAsset: {fileID: 0}
  m_GameObject: {fileID: 7631944678935784368}
  m_Enabled: 1
  m_EditorHideFlags: 0
  m_Script: {fileID: 11500000, guid: cc3d0067bd335fb419b025c67fd4c1df, type: 3}
  m_Name: 
  m_EditorClassIdentifier: 
--- !u!4 &3345656352466467715 stripped
Transform:
  m_CorrespondingSourceObject: {fileID: 7614967429340073451, guid: 6ac263661e4cf8c48947fd3159a3ba58, type: 3}
  m_PrefabInstance: {fileID: 5171227752169666152}
  m_PrefabAsset: {fileID: 0}
--- !u!1 &3345656352466467727 stripped
GameObject:
  m_CorrespondingSourceObject: {fileID: 7614967429340073447, guid: 6ac263661e4cf8c48947fd3159a3ba58, type: 3}
  m_PrefabInstance: {fileID: 5171227752169666152}
  m_PrefabAsset: {fileID: 0}
--- !u!54 &1369710997869292714
Rigidbody:
  m_ObjectHideFlags: 0
  m_CorrespondingSourceObject: {fileID: 0}
  m_PrefabInstance: {fileID: 0}
  m_PrefabAsset: {fileID: 0}
  m_GameObject: {fileID: 3345656352466467727}
  serializedVersion: 2
  m_Mass: 1
  m_Drag: 0
  m_AngularDrag: 0.05
  m_UseGravity: 0
  m_IsKinematic: 1
  m_Interpolate: 0
  m_Constraints: 0
  m_CollisionDetection: 0
--- !u!114 &126916745437603396
MonoBehaviour:
  m_ObjectHideFlags: 0
  m_CorrespondingSourceObject: {fileID: 0}
  m_PrefabInstance: {fileID: 0}
  m_PrefabAsset: {fileID: 0}
  m_GameObject: {fileID: 3345656352466467727}
  m_Enabled: 1
  m_EditorHideFlags: 0
  m_Script: {fileID: 11500000, guid: 6679b1258e4fb4827bfe39d0b0135b66, type: 3}
  m_Name: 
  m_EditorClassIdentifier: 
  syncMode: 0
  syncInterval: 0.1
  m_GrabRadius: 3
  m_Save:
    m_Phase:
      Name: 
    m_IsLogging: 0
    m_Tunables:
      m_Delay: 0.48
      m_SmellDuration: 0.97
      m_PlantDuration: 4.3
  m_Load:
    m_Phase:
      Name: 
    m_IsLogging: 0
    m_Tunables:
      LoadCastMaxTime: 30
      LoadCastPointTime: 1
      LoadCastPointDistance: 35
      LoadCancelMultiplier: 1
  m_Entities: {fileID: 11400000, guid: 8ad8e32d8125540e8b5040f0b6c0d78c, type: 2}
--- !u!114 &315037361225936347
MonoBehaviour:
  m_ObjectHideFlags: 0
  m_CorrespondingSourceObject: {fileID: 0}
  m_PrefabInstance: {fileID: 0}
  m_PrefabAsset: {fileID: 0}
  m_GameObject: {fileID: 3345656352466467727}
  m_Enabled: 1
  m_EditorHideFlags: 0
  m_Script: {fileID: 11500000, guid: 9a5a78b241ae64a77ae06ab24d41e463, type: 3}
  m_Name: 
  m_EditorClassIdentifier: 
  m_Value: {x: 69, y: 420}
  m_ChunkSize:
    _usage: 2
    _value: 0
    _constant: {fileID: 0}
    _variable: {fileID: 11400000, guid: f7610f4785cf8493ca76dfc06c4cba63, type: 2}
    _variableInstancer: {fileID: 0}
--- !u!114 &1315896245521232624
MonoBehaviour:
  m_ObjectHideFlags: 0
  m_CorrespondingSourceObject: {fileID: 0}
  m_PrefabInstance: {fileID: 0}
  m_PrefabAsset: {fileID: 0}
  m_GameObject: {fileID: 3345656352466467727}
  m_Enabled: 1
  m_EditorHideFlags: 0
  m_Script: {fileID: 11500000, guid: 221dacf21deba4905a57531c110be896, type: 3}
  m_Name: 
  m_EditorClassIdentifier: 
  syncMode: 0
  syncInterval: 0.1
  m_WrapMinY: -4000
  m_WrapMaxY: 6000
--- !u!114 &1499552191486369337
MonoBehaviour:
  m_ObjectHideFlags: 0
  m_CorrespondingSourceObject: {fileID: 0}
  m_PrefabInstance: {fileID: 0}
  m_PrefabAsset: {fileID: 0}
  m_GameObject: {fileID: 3345656352466467727}
  m_Enabled: 1
  m_EditorHideFlags: 0
  m_Script: {fileID: 11500000, guid: 0eee887177deb46d0a99a80352fa4831, type: 3}
  m_Name: 
  m_EditorClassIdentifier: 
  syncMode: 0
  syncInterval: 0.1
  m_Key: 0
  m_Simulation: 2
  m_IsInitial: 0
  m_IsAvailable: 1
  m_IsDebug: 0
  m_RemoteState:
    Position: {x: 0, y: 0, z: 0}
    Velocity: {x: 0, y: 0, z: 0}
    Acceleration: {x: 0, y: 0, z: 0}
    Forward: {x: 0, y: 0, z: 0}
    IsInJumpSquat: 0
    IsInJumpStart: 0
    IsOnWall: 0
    IsCrouching: 0
    Tilt: {x: 0, y: 0, z: 0, w: 1}
    JumpSquatFrame: -1
    IdleTime: 0
    Horizontal_Drag: 0
    Horizontal_KineticFriction: 0
    Horizontal_StaticFriction: 0
    PivotFrame: -1
    PivotDirection: {x: 0, y: 0, z: 0}
    CrouchDirection: {x: 0, y: 0, z: 0}
    Jumps: 0
    Events:
      m_Events: 0
  m_InterpolationTime: 0.27
  m_Spawned: {fileID: 11400000, guid: a5ded69631d7ef641857f73f4368df26, type: 2}
  m_Destroyed: {fileID: 11400000, guid: 043c83e16281ccd47b689ae408c6337e, type: 2}
--- !u!114 &1731996866325999123
MonoBehaviour:
  m_ObjectHideFlags: 0
  m_CorrespondingSourceObject: {fileID: 0}
  m_PrefabInstance: {fileID: 0}
  m_PrefabAsset: {fileID: 0}
  m_GameObject: {fileID: 3345656352466467727}
  m_Enabled: 1
  m_EditorHideFlags: 0
  m_Script: {fileID: 11500000, guid: 9b91ecbcc199f4492b9a91e820070131, type: 3}
  m_Name: 
  m_EditorClassIdentifier: 
  sceneId: 0
  serverOnly: 0
  visible: 0
  m_AssetId: 5af35ff3d33824a088c62a008a1f654d
  hasSpawned: 0
--- !u!114 &2828893429782085707
MonoBehaviour:
  m_ObjectHideFlags: 0
  m_CorrespondingSourceObject: {fileID: 0}
  m_PrefabInstance: {fileID: 0}
  m_PrefabAsset: {fileID: 0}
  m_GameObject: {fileID: 3345656352466467727}
  m_Enabled: 1
  m_EditorHideFlags: 0
  m_Script: {fileID: 11500000, guid: 6e100a10352861a48b680ccc7ed07f19, type: 3}
  m_Name: 
  m_EditorClassIdentifier: 
  syncMode: 0
  syncInterval: 0.1
  m_CurrentHat: none
--- !u!4 &5294547428429929720 stripped
Transform:
  m_CorrespondingSourceObject: {fileID: 1061133086809451152, guid: 6ac263661e4cf8c48947fd3159a3ba58, type: 3}
  m_PrefabInstance: {fileID: 5171227752169666152}
  m_PrefabAsset: {fileID: 0}
--- !u!1 &7631944678935784368 stripped
GameObject:
  m_CorrespondingSourceObject: {fileID: 3326463586402868696, guid: 6ac263661e4cf8c48947fd3159a3ba58, type: 3}
  m_PrefabInstance: {fileID: 5171227752169666152}
  m_PrefabAsset: {fileID: 0}
--- !u!114 &327932718765362585
MonoBehaviour:
  m_ObjectHideFlags: 0
  m_CorrespondingSourceObject: {fileID: 0}
  m_PrefabInstance: {fileID: 0}
  m_PrefabAsset: {fileID: 0}
  m_GameObject: {fileID: 7631944678935784368}
  m_Enabled: 1
  m_EditorHideFlags: 0
  m_Script: {fileID: 11500000, guid: 9a6ab7cbc45164d19b20476265c251c2, type: 3}
  m_Name: 
  m_EditorClassIdentifier: 
  _developerDescription: 
  _unityEventResponse:
    m_PersistentCalls:
      m_Calls:
      - m_Target: {fileID: 3215011315793297274}
        m_TargetAssemblyTypeName: ThirdPerson.CameraFollowTarget, Assembly-CSharp-firstpass
        m_MethodName: SetInvertX
        m_Mode: 0
        m_Arguments:
          m_ObjectArgument: {fileID: 0}
          m_ObjectArgumentAssemblyTypeName: UnityEngine.Object, UnityEngine
          m_IntArgument: 0
          m_FloatArgument: 0
          m_StringArgument: 
          m_BoolArgument: 0
        m_CallState: 2
  _actionResponses: []
  _conditions: []
  _operator: 0
  _replayEventBufferOnRegister: 1
  _eventReference:
    _usage: 2
    _event: {fileID: 0}
    _eventInstancer: {fileID: 0}
    _variable: {fileID: 11400000, guid: c9d4210345147c9428851343a8f6efd4, type: 2}
    _variableInstancer: {fileID: 0}
--- !u!114 &7856858932680682433
MonoBehaviour:
  m_ObjectHideFlags: 0
  m_CorrespondingSourceObject: {fileID: 0}
  m_PrefabInstance: {fileID: 0}
  m_PrefabAsset: {fileID: 0}
  m_GameObject: {fileID: 7631944678935784368}
  m_Enabled: 1
  m_EditorHideFlags: 0
  m_Script: {fileID: 11500000, guid: 9a6ab7cbc45164d19b20476265c251c2, type: 3}
  m_Name: 
  m_EditorClassIdentifier: 
  _developerDescription: 
  _unityEventResponse:
    m_PersistentCalls:
      m_Calls:
      - m_Target: {fileID: 3215011315793297274}
        m_TargetAssemblyTypeName: ThirdPerson.CameraFollowTarget, Assembly-CSharp-firstpass
        m_MethodName: SetInvertY
        m_Mode: 0
        m_Arguments:
          m_ObjectArgument: {fileID: 0}
          m_ObjectArgumentAssemblyTypeName: UnityEngine.Object, UnityEngine
          m_IntArgument: 0
          m_FloatArgument: 0
          m_StringArgument: 
          m_BoolArgument: 0
        m_CallState: 2
  _actionResponses: []
  _conditions: []
  _operator: 0
  _replayEventBufferOnRegister: 1
  _eventReference:
    _usage: 2
    _event: {fileID: 0}
    _eventInstancer: {fileID: 0}
    _variable: {fileID: 11400000, guid: 2008dcd8b25e7114ead86106ba165f13, type: 2}
    _variableInstancer: {fileID: 0}
--- !u!1001 &5205614750460734384
PrefabInstance:
  m_ObjectHideFlags: 0
  serializedVersion: 2
  m_Modification:
    m_TransformParent: {fileID: 3345656352466467715}
    m_Modifications:
    - target: {fileID: 2784589926643812344, guid: d97d6942ed1a4b94497fdbf648e81dc7, type: 3}
      propertyPath: m_RootOrder
      value: 5
      objectReference: {fileID: 0}
    - target: {fileID: 2784589926643812344, guid: d97d6942ed1a4b94497fdbf648e81dc7, type: 3}
      propertyPath: m_LocalPosition.x
      value: 0
      objectReference: {fileID: 0}
    - target: {fileID: 2784589926643812344, guid: d97d6942ed1a4b94497fdbf648e81dc7, type: 3}
      propertyPath: m_LocalPosition.y
      value: 0
      objectReference: {fileID: 0}
    - target: {fileID: 2784589926643812344, guid: d97d6942ed1a4b94497fdbf648e81dc7, type: 3}
      propertyPath: m_LocalPosition.z
      value: 0
      objectReference: {fileID: 0}
    - target: {fileID: 2784589926643812344, guid: d97d6942ed1a4b94497fdbf648e81dc7, type: 3}
      propertyPath: m_LocalRotation.w
      value: 1
      objectReference: {fileID: 0}
    - target: {fileID: 2784589926643812344, guid: d97d6942ed1a4b94497fdbf648e81dc7, type: 3}
      propertyPath: m_LocalRotation.x
      value: 0
      objectReference: {fileID: 0}
    - target: {fileID: 2784589926643812344, guid: d97d6942ed1a4b94497fdbf648e81dc7, type: 3}
      propertyPath: m_LocalRotation.y
      value: 0
      objectReference: {fileID: 0}
    - target: {fileID: 2784589926643812344, guid: d97d6942ed1a4b94497fdbf648e81dc7, type: 3}
      propertyPath: m_LocalRotation.z
      value: 0
      objectReference: {fileID: 0}
    - target: {fileID: 2784589926643812344, guid: d97d6942ed1a4b94497fdbf648e81dc7, type: 3}
      propertyPath: m_LocalEulerAnglesHint.x
      value: 0
      objectReference: {fileID: 0}
    - target: {fileID: 2784589926643812344, guid: d97d6942ed1a4b94497fdbf648e81dc7, type: 3}
      propertyPath: m_LocalEulerAnglesHint.y
      value: 0
      objectReference: {fileID: 0}
    - target: {fileID: 2784589926643812344, guid: d97d6942ed1a4b94497fdbf648e81dc7, type: 3}
      propertyPath: m_LocalEulerAnglesHint.z
      value: 0
      objectReference: {fileID: 0}
    - target: {fileID: 3451155947279716790, guid: d97d6942ed1a4b94497fdbf648e81dc7, type: 3}
      propertyPath: Params.Array.size
      value: 1
      objectReference: {fileID: 0}
    - target: {fileID: 3451155947279716790, guid: d97d6942ed1a4b94497fdbf648e81dc7, type: 3}
      propertyPath: EventReference.Path
      value: event:/Character/Mousing-clone
      objectReference: {fileID: 0}
    - target: {fileID: 3451155947279716790, guid: d97d6942ed1a4b94497fdbf648e81dc7, type: 3}
      propertyPath: EventReference.Guid.Data1
      value: -1145447799
      objectReference: {fileID: 0}
    - target: {fileID: 3451155947279716790, guid: d97d6942ed1a4b94497fdbf648e81dc7, type: 3}
      propertyPath: EventReference.Guid.Data2
      value: 1096292872
      objectReference: {fileID: 0}
    - target: {fileID: 3451155947279716790, guid: d97d6942ed1a4b94497fdbf648e81dc7, type: 3}
      propertyPath: EventReference.Guid.Data3
      value: 895225775
      objectReference: {fileID: 0}
    - target: {fileID: 3451155947279716790, guid: d97d6942ed1a4b94497fdbf648e81dc7, type: 3}
      propertyPath: EventReference.Guid.Data4
      value: 1332738784
      objectReference: {fileID: 0}
    - target: {fileID: 3451155947279716790, guid: d97d6942ed1a4b94497fdbf648e81dc7, type: 3}
      propertyPath: Params.Array.data[0].Name
      value: Tone
      objectReference: {fileID: 0}
    - target: {fileID: 3451155947279716790, guid: d97d6942ed1a4b94497fdbf648e81dc7, type: 3}
      propertyPath: Params.Array.data[1].Name
      value: Tone3
      objectReference: {fileID: 0}
    - target: {fileID: 3451155947279716790, guid: d97d6942ed1a4b94497fdbf648e81dc7, type: 3}
      propertyPath: Params.Array.data[2].Name
      value: Tone4
      objectReference: {fileID: 0}
    - target: {fileID: 3451155947279716790, guid: d97d6942ed1a4b94497fdbf648e81dc7, type: 3}
      propertyPath: Params.Array.data[3].Name
      value: Tone
      objectReference: {fileID: 0}
    - target: {fileID: 4283023995948312298, guid: d97d6942ed1a4b94497fdbf648e81dc7, type: 3}
      propertyPath: m_CurrentCharacter
      value: 
      objectReference: {fileID: 11400000, guid: bae15b4b912f1409080da0bc3aa9a5f8, type: 2}
    - target: {fileID: 5077628810954296242, guid: d97d6942ed1a4b94497fdbf648e81dc7, type: 3}
      propertyPath: m_Name
      value: Music
      objectReference: {fileID: 0}
    m_RemovedComponents: []
  m_SourcePrefab: {fileID: 100100000, guid: d97d6942ed1a4b94497fdbf648e81dc7, type: 3}
--- !u!1001 &6292055739539103624
PrefabInstance:
  m_ObjectHideFlags: 0
  serializedVersion: 2
  m_Modification:
    m_TransformParent: {fileID: 3345656352466467715}
    m_Modifications:
    - target: {fileID: 3865053424001678558, guid: 77fadbd782d543b419b4d910ec821a0c, type: 3}
      propertyPath: m_RootOrder
      value: 4
      objectReference: {fileID: 0}
    - target: {fileID: 3865053424001678558, guid: 77fadbd782d543b419b4d910ec821a0c, type: 3}
      propertyPath: m_LocalPosition.x
      value: 0
      objectReference: {fileID: 0}
    - target: {fileID: 3865053424001678558, guid: 77fadbd782d543b419b4d910ec821a0c, type: 3}
      propertyPath: m_LocalPosition.y
      value: 0
      objectReference: {fileID: 0}
    - target: {fileID: 3865053424001678558, guid: 77fadbd782d543b419b4d910ec821a0c, type: 3}
      propertyPath: m_LocalPosition.z
      value: 0
      objectReference: {fileID: 0}
    - target: {fileID: 3865053424001678558, guid: 77fadbd782d543b419b4d910ec821a0c, type: 3}
      propertyPath: m_LocalRotation.w
      value: 1
      objectReference: {fileID: 0}
    - target: {fileID: 3865053424001678558, guid: 77fadbd782d543b419b4d910ec821a0c, type: 3}
      propertyPath: m_LocalRotation.x
      value: 0
      objectReference: {fileID: 0}
    - target: {fileID: 3865053424001678558, guid: 77fadbd782d543b419b4d910ec821a0c, type: 3}
      propertyPath: m_LocalRotation.y
      value: 0
      objectReference: {fileID: 0}
    - target: {fileID: 3865053424001678558, guid: 77fadbd782d543b419b4d910ec821a0c, type: 3}
      propertyPath: m_LocalRotation.z
      value: 0
      objectReference: {fileID: 0}
    - target: {fileID: 3865053424001678558, guid: 77fadbd782d543b419b4d910ec821a0c, type: 3}
      propertyPath: m_LocalEulerAnglesHint.x
      value: 0
      objectReference: {fileID: 0}
    - target: {fileID: 3865053424001678558, guid: 77fadbd782d543b419b4d910ec821a0c, type: 3}
      propertyPath: m_LocalEulerAnglesHint.y
      value: 0
      objectReference: {fileID: 0}
    - target: {fileID: 3865053424001678558, guid: 77fadbd782d543b419b4d910ec821a0c, type: 3}
      propertyPath: m_LocalEulerAnglesHint.z
      value: 0
      objectReference: {fileID: 0}
    - target: {fileID: 4133054794193357108, guid: 77fadbd782d543b419b4d910ec821a0c, type: 3}
      propertyPath: m_Name
      value: Dialogue
      objectReference: {fileID: 0}
    - target: {fileID: 5426690310298381735, guid: 77fadbd782d543b419b4d910ec821a0c, type: 3}
      propertyPath: Character
      value: 
      objectReference: {fileID: 3345656352466467727}
    - target: {fileID: 5426690310298381735, guid: 77fadbd782d543b419b4d910ec821a0c, type: 3}
      propertyPath: m_Character
      value: 
      objectReference: {fileID: 1499552191486369337}
    - target: {fileID: 5426690310298381735, guid: 77fadbd782d543b419b4d910ec821a0c, type: 3}
      propertyPath: m_DriveStart
      value: 
      objectReference: {fileID: 11400000, guid: 0deed690cad61482db6659a55125900d, type: 2}
    - target: {fileID: 5426690310298381735, guid: 77fadbd782d543b419b4d910ec821a0c, type: 3}
      propertyPath: m_StartDialogueWithCharacter
      value: 
      objectReference: {fileID: 11400000, guid: e776bc01eb723b046b946fb4461a0501, type: 2}
    - target: {fileID: 6639605653257697580, guid: 77fadbd782d543b419b4d910ec821a0c, type: 3}
      propertyPath: m_Name
      value: Indicator
      objectReference: {fileID: 0}
    m_RemovedComponents: []
  m_SourcePrefab: {fileID: 100100000, guid: 77fadbd782d543b419b4d910ec821a0c, type: 3}
