# Blender MTL File: 'None'
# Material Count: 12

newmtl Shape.034
Ns 0.000000
Ka 1.000000 1.000000 1.000000
Kd 0.256250 0.256250 0.256250
Ks 0.000000 0.000000 0.000000
Ke 0.000000 0.000000 0.000000
Ni 1.000000
d 1.000000
illum 2
map_Kd 3C96C6A_c.png

newmtl Shape.035
Ns 0.000000
Ka 1.000000 1.000000 1.000000
Kd 0.756250 0.756250 0.756250
Ks 0.000000 0.000000 0.000000
Ke 0.000000 0.000000 0.000000
Ni 1.000000
d 1.000000
illum 2
map_Kd 3C96C6A_c.png

newmtl Shape.036
Ns 0.000000
Ka 1.000000 1.000000 1.000000
Kd 0.756250 0.756250 0.756250
Ks 0.000000 0.000000 0.000000
Ke 0.000000 0.000000 0.000000
Ni 1.000000
d 1.000000
illum 2
map_Kd 7A7501A5_c.png

newmtl Shape.037
Ns 0.000000
Ka 1.000000 1.000000 1.000000
Kd 0.296875 0.296875 0.296875
Ks 0.000000 0.000000 0.000000
Ke 0.000000 0.000000 0.000000
Ni 1.000000
d 1.000000
illum 2
map_Kd 6B88A261_c.png

newmtl Shape.038
Ns 0.000000
Ka 1.000000 1.000000 1.000000
Kd 0.681250 0.681250 0.681250
Ks 0.000000 0.000000 0.000000
Ke 0.000000 0.000000 0.000000
Ni 1.000000
d 1.000000
illum 2
map_Kd 59FF6061_c.png

newmtl Shape.039
Ns 0.000000
Ka 1.000000 1.000000 1.000000
Kd 0.693750 0.693750 0.693750
Ks 0.000000 0.000000 0.000000
Ke 0.000000 0.000000 0.000000
Ni 1.000000
d 1.000000
illum 2
map_Kd 63D921C2_c.png

newmtl Shape.040
Ns 0.000000
Ka 1.000000 1.000000 1.000000
Kd 0.693750 0.693750 0.693750
Ks 0.000000 0.000000 0.000000
Ke 0.000000 0.000000 0.000000
Ni 1.000000
d 1.000000
illum 2
map_Kd 71495D75_c.png

newmtl Shape.041
Ns 0.000000
Ka 1.000000 1.000000 1.000000
Kd 0.693750 0.693750 0.693750
Ks 0.000000 0.000000 0.000000
Ke 0.000000 0.000000 0.000000
Ni 1.000000
d 1.000000
illum 2
map_Kd 63D921C2_c.png

newmtl Shape.042
Ns 0.000000
Ka 1.000000 1.000000 1.000000
Kd 0.693750 0.693750 0.693750
Ks 0.000000 0.000000 0.000000
Ke 0.000000 0.000000 0.000000
Ni 1.000000
d 1.000000
illum 2
map_Kd 71495D75_c.png

newmtl Shape.043
Ns 0.000000
Ka 1.000000 1.000000 1.000000
Kd 0.693750 0.693750 0.693750
Ks 0.000000 0.000000 0.000000
Ke 0.000000 0.000000 0.000000
Ni 1.000000
d 1.000000
illum 2
map_Kd 63D921C2_c.png

newmtl Shape.044
Ns 0.000000
Ka 1.000000 1.000000 1.000000
Kd 0.693750 0.693750 0.693750
Ks 0.000000 0.000000 0.000000
Ke 0.000000 0.000000 0.000000
Ni 1.000000
d 1.000000
illum 2
map_Kd 71495D75_c.png

newmtl Shape.078
Ns 0.000000
Ka 1.000000 1.000000 1.000000
Kd 0.296875 0.296875 0.296875
Ks 0.000000 0.000000 0.000000
Ke 0.000000 0.000000 0.000000
Ni 1.000000
d 0.000000
illum 2
map_Kd 762BFC9A_c.png
map_d 762BFC9A_c.png
