%YAML 1.1
%TAG !u! tag:unity3d.com,2011:
--- !u!114 &11400000
MonoBehaviour:
  m_ObjectHideFlags: 0
  m_CorrespondingSourceObject: {fileID: 0}
  m_PrefabInstance: {fileID: 0}
  m_PrefabAsset: {fileID: 0}
  m_GameObject: {fileID: 0}
  m_Enabled: 1
  m_EditorHideFlags: 0
  m_Script: {fileID: 11500000, guid: 6e78b0fbee455204da2c40ab65fdb6a1, type: 3}
  m_Name: BallPit_Region
  m_EditorClassIdentifier: 
  _developerDescription: 
  _id: 
  _value:
    DisplayName: ball pit
    MusicString: swamp
    FogColor: {r: 0.90588236, g: 0.5882353, b: 0.46666667, a: 0}
    SkyColor:
      Foreground: {r: 0.8784314, g: 0.8784314, b: 0.8784314, a: 1}
      ForegroundExposure: 1.83
      Background: {r: 0.3882353, g: 0.19215687, b: 0.37254903, a: 1}
      BackgroundExposure: 1.83
