%YAML 1.1
%TAG !u! tag:unity3d.com,2011:
--- !u!114 &11400000
MonoBehaviour:
  m_ObjectHideFlags: 0
  m_CorrespondingSourceObject: {fileID: 0}
  m_PrefabInstance: {fileID: 0}
  m_PrefabAsset: {fileID: 0}
  m_GameObject: {fileID: 0}
  m_Enabled: 1
  m_EditorHideFlags: 0
  m_Script: {fileID: 11500000, guid: 3118cc0eacecc480ab561bc9f9e95b3b, type: 3}
  m_Name: Clockboi
  m_EditorClassIdentifier: 
  m_Character: {fileID: 5295622723729611320, guid: 11dc85af13d69414e95e954ce1859949, type: 3}
  m_Flower: {fileID: 4111362418330578929, guid: 79fd96ee4619948bd95ee8b710b963af, type: 3}
