%YAML 1.1
%TAG !u! tag:unity3d.com,2011:
--- !u!1 &258077852323132191
GameObject:
  m_ObjectHideFlags: 0
  m_CorrespondingSourceObject: {fileID: 0}
  m_PrefabInstance: {fileID: 0}
  m_PrefabAsset: {fileID: 0}
  serializedVersion: 6
  m_Component:
  - component: {fileID: 5509592097533476979}
  m_Layer: 12
  m_Name: Sky
  m_TagString: Untagged
  m_Icon: {fileID: 0}
  m_NavMeshLayer: 0
  m_StaticEditorFlags: 0
  m_IsActive: 1
--- !u!4 &5509592097533476979
Transform:
  m_ObjectHideFlags: 0
  m_CorrespondingSourceObject: {fileID: 0}
  m_PrefabInstance: {fileID: 0}
  m_PrefabAsset: {fileID: 0}
  m_GameObject: {fileID: 258077852323132191}
  m_LocalRotation: {x: -0, y: -0, z: -0, w: 1}
  m_LocalPosition: {x: 0, y: 0, z: 0}
  m_LocalScale: {x: 1, y: 1, z: 1}
  m_ConstrainProportionsScale: 0
  m_Children:
  - {fileID: 1211699233898172182}
  - {fileID: 2493838014503354771}
  - {fileID: 2432629883032242310}
  m_Father: {fileID: 0}
  m_RootOrder: 0
  m_LocalEulerAnglesHint: {x: 0, y: 0, z: 0}
--- !u!1 &454747099738311233
GameObject:
  m_ObjectHideFlags: 0
  m_CorrespondingSourceObject: {fileID: 0}
  m_PrefabInstance: {fileID: 0}
  m_PrefabAsset: {fileID: 0}
  serializedVersion: 6
  m_Component:
  - component: {fileID: 3271895772915209822}
  - component: {fileID: 4373979943295591104}
  - component: {fileID: 7713099562054586486}
  m_Layer: 12
  m_Name: Sky_Consetllation.0
  m_TagString: Untagged
  m_Icon: {fileID: 0}
  m_NavMeshLayer: 0
  m_StaticEditorFlags: 0
  m_IsActive: 1
--- !u!4 &3271895772915209822
Transform:
  m_ObjectHideFlags: 0
  m_CorrespondingSourceObject: {fileID: 0}
  m_PrefabInstance: {fileID: 0}
  m_PrefabAsset: {fileID: 0}
  m_GameObject: {fileID: 454747099738311233}
  m_LocalRotation: {x: -0, y: 0.52847666, z: -0, w: 0.8489479}
  m_LocalPosition: {x: 1.1500771, y: 6.3287783, z: 16.446869}
  m_LocalScale: {x: 0.75250995, y: 0.75251, z: 0.75250995}
  m_ConstrainProportionsScale: 0
  m_Children: []
  m_Father: {fileID: 1211699233898172182}
  m_RootOrder: 3
  m_LocalEulerAnglesHint: {x: 0, y: 63.805, z: 0}
--- !u!120 &4373979943295591104
LineRenderer:
  m_ObjectHideFlags: 0
  m_CorrespondingSourceObject: {fileID: 0}
  m_PrefabInstance: {fileID: 0}
  m_PrefabAsset: {fileID: 0}
  m_GameObject: {fileID: 454747099738311233}
  m_Enabled: 1
  m_CastShadows: 0
  m_ReceiveShadows: 0
  m_DynamicOccludee: 1
  m_StaticShadowCaster: 0
  m_MotionVectors: 0
  m_LightProbeUsage: 0
  m_ReflectionProbeUsage: 0
  m_RayTracingMode: 0
  m_RayTraceProcedural: 0
  m_RenderingLayerMask: 1
  m_RendererPriority: 0
  m_Materials:
  - {fileID: 10306, guid: 0000000000000000f000000000000000, type: 0}
  m_StaticBatchInfo:
    firstSubMesh: 0
    subMeshCount: 0
  m_StaticBatchRoot: {fileID: 0}
  m_ProbeAnchor: {fileID: 0}
  m_LightProbeVolumeOverride: {fileID: 0}
  m_ScaleInLightmap: 1
  m_ReceiveGI: 1
  m_PreserveUVs: 0
  m_IgnoreNormalsForChartDetection: 0
  m_ImportantGI: 0
  m_StitchLightmapSeams: 1
  m_SelectedEditorRenderState: 3
  m_MinimumChartSize: 4
  m_AutoUVMaxDistance: 0.5
  m_AutoUVMaxAngle: 89
  m_LightmapParameters: {fileID: 0}
  m_SortingLayerID: 0
  m_SortingLayer: 0
  m_SortingOrder: 0
  m_Positions:
  - {x: 0, y: 0, z: 0}
  - {x: -0.09121106, y: -0.26294923, z: 0.9273739}
  - {x: 3.4961033, y: -2.4163022, z: 1.2182549}
  - {x: 2.6791615, y: -2.9787698, z: 3.150457}
  - {x: 2.184671, y: -3.830864, z: 0.76320875}
  - {x: 4.3679757, y: -0.57000136, z: 1.0746002}
  - {x: 3.7360604, y: -1.5857605, z: 2.8704846}
  m_Parameters:
    serializedVersion: 3
    widthMultiplier: 0.03
    widthCurve:
      serializedVersion: 2
      m_Curve:
      - serializedVersion: 3
        time: 0
        value: 1
        inSlope: 0
        outSlope: 0
        tangentMode: 0
        weightedMode: 0
        inWeight: 0.33333334
        outWeight: 0.33333334
      m_PreInfinity: 2
      m_PostInfinity: 2
      m_RotationOrder: 4
    colorGradient:
      serializedVersion: 2
      key0: {r: 1, g: 1, b: 1, a: 1}
      key1: {r: 1, g: 1, b: 1, a: 1}
      key2: {r: 0, g: 0, b: 0, a: 0}
      key3: {r: 0, g: 0, b: 0, a: 0}
      key4: {r: 0, g: 0, b: 0, a: 0}
      key5: {r: 0, g: 0, b: 0, a: 0}
      key6: {r: 0, g: 0, b: 0, a: 0}
      key7: {r: 0, g: 0, b: 0, a: 0}
      ctime0: 0
      ctime1: 65535
      ctime2: 0
      ctime3: 0
      ctime4: 0
      ctime5: 0
      ctime6: 0
      ctime7: 0
      atime0: 0
      atime1: 65535
      atime2: 0
      atime3: 0
      atime4: 0
      atime5: 0
      atime6: 0
      atime7: 0
      m_Mode: 0
      m_NumColorKeys: 2
      m_NumAlphaKeys: 2
    numCornerVertices: 0
    numCapVertices: 0
    alignment: 0
    textureMode: 0
    shadowBias: 0.5
    generateLightingData: 0
  m_UseWorldSpace: 0
  m_Loop: 0
--- !u!114 &7713099562054586486
MonoBehaviour:
  m_ObjectHideFlags: 0
  m_CorrespondingSourceObject: {fileID: 0}
  m_PrefabInstance: {fileID: 0}
  m_PrefabAsset: {fileID: 0}
  m_GameObject: {fileID: 454747099738311233}
  m_Enabled: 1
  m_EditorHideFlags: 0
  m_Script: {fileID: 11500000, guid: 493e62dd96ffb4a158ba3918a0472c53, type: 3}
  m_Name: 
  m_EditorClassIdentifier: 
  m_Coordinate:
    Radius: 17.66
    Zenith: 21
    Azimuth: -94
--- !u!1 &2811809610772411967
GameObject:
  m_ObjectHideFlags: 0
  m_CorrespondingSourceObject: {fileID: 0}
  m_PrefabInstance: {fileID: 0}
  m_PrefabAsset: {fileID: 0}
  serializedVersion: 6
  m_Component:
  - component: {fileID: 1211699233898172182}
  - component: {fileID: 2860272935568009575}
  m_Layer: 12
  m_Name: Bodies
  m_TagString: Untagged
  m_Icon: {fileID: 0}
  m_NavMeshLayer: 0
  m_StaticEditorFlags: 0
  m_IsActive: 1
--- !u!4 &1211699233898172182
Transform:
  m_ObjectHideFlags: 0
  m_CorrespondingSourceObject: {fileID: 0}
  m_PrefabInstance: {fileID: 0}
  m_PrefabAsset: {fileID: 0}
  m_GameObject: {fileID: 2811809610772411967}
  m_LocalRotation: {x: 0, y: 0, z: 0, w: 1}
  m_LocalPosition: {x: 0, y: 0, z: 0}
  m_LocalScale: {x: 1, y: 1, z: 1}
  m_ConstrainProportionsScale: 0
  m_Children:
  - {fileID: 1467772517285794813}
  - {fileID: 6331092150681418322}
  - {fileID: 5511982502258559213}
  - {fileID: 3271895772915209822}
  - {fileID: 2020649436877692017}
  m_Father: {fileID: 5509592097533476979}
  m_RootOrder: 0
  m_LocalEulerAnglesHint: {x: 0, y: 0, z: 0}
--- !u!114 &2860272935568009575
MonoBehaviour:
  m_ObjectHideFlags: 0
  m_CorrespondingSourceObject: {fileID: 0}
  m_PrefabInstance: {fileID: 0}
  m_PrefabAsset: {fileID: 0}
  m_GameObject: {fileID: 2811809610772411967}
  m_Enabled: 1
  m_EditorHideFlags: 0
  m_Script: {fileID: 11500000, guid: 290f4e363fc1d6d4e89a96bb495b8255, type: 3}
  m_Name: 
  m_EditorClassIdentifier: 
  m_Variable: {fileID: 11400000, guid: 3ed5e9dbf156a45ac96fb027f74f811c, type: 2}
  m_IsTransient: 1
--- !u!1 &6291853977538404268
GameObject:
  m_ObjectHideFlags: 0
  m_CorrespondingSourceObject: {fileID: 0}
  m_PrefabInstance: {fileID: 0}
  m_PrefabAsset: {fileID: 0}
  serializedVersion: 6
  m_Component:
  - component: {fileID: 2432629883032242310}
  - component: {fileID: 3355910314260221863}
  - component: {fileID: 3531919063327222834}
  - component: {fileID: 7138546339692227617}
  - component: {fileID: 2919889226823943126}
  m_Layer: 0
  m_Name: Camera-sky
  m_TagString: Untagged
  m_Icon: {fileID: 0}
  m_NavMeshLayer: 0
  m_StaticEditorFlags: 0
  m_IsActive: 1
--- !u!4 &2432629883032242310
Transform:
  m_ObjectHideFlags: 0
  m_CorrespondingSourceObject: {fileID: 0}
  m_PrefabInstance: {fileID: 0}
  m_PrefabAsset: {fileID: 0}
  m_GameObject: {fileID: 6291853977538404268}
  m_LocalRotation: {x: 0, y: 0, z: 0, w: 1}
  m_LocalPosition: {x: 0, y: 0, z: 0}
  m_LocalScale: {x: 1, y: 1, z: 1}
  m_ConstrainProportionsScale: 0
  m_Children: []
  m_Father: {fileID: 5509592097533476979}
  m_RootOrder: 2
  m_LocalEulerAnglesHint: {x: 0, y: 0, z: 0}
--- !u!20 &3355910314260221863
Camera:
  m_ObjectHideFlags: 0
  m_CorrespondingSourceObject: {fileID: 0}
  m_PrefabInstance: {fileID: 0}
  m_PrefabAsset: {fileID: 0}
  m_GameObject: {fileID: 6291853977538404268}
  m_Enabled: 1
  serializedVersion: 2
  m_ClearFlags: 1
  m_BackGroundColor: {r: 0.972049, g: 1, b: 0, a: 0}
  m_projectionMatrixMode: 1
  m_GateFitMode: 2
  m_FOVAxisMode: 0
  m_SensorSize: {x: 36, y: 24}
  m_LensShift: {x: 0, y: 0}
  m_FocalLength: 50
  m_NormalizedViewPortRect:
    serializedVersion: 2
    x: 0
    y: 0
    width: 1
    height: 1
  near clip plane: 0.3
  far clip plane: 1000
  field of view: 69
  orthographic: 0
  orthographic size: 5
  m_Depth: 0
  m_CullingMask:
    serializedVersion: 2
    m_Bits: 4096
  m_RenderingPath: -1
  m_TargetTexture: {fileID: 8400000, guid: f3838b90b6c3cb948ab1c46b3fec11aa, type: 2}
  m_TargetDisplay: 0
  m_TargetEye: 3
  m_HDR: 1
  m_AllowMSAA: 1
  m_AllowDynamicResolution: 0
  m_ForceIntoRT: 0
  m_OcclusionCulling: 1
  m_StereoConvergence: 10
  m_StereoSeparation: 0.022
--- !u!114 &3531919063327222834
MonoBehaviour:
  m_ObjectHideFlags: 0
  m_CorrespondingSourceObject: {fileID: 0}
  m_PrefabInstance: {fileID: 0}
  m_PrefabAsset: {fileID: 0}
  m_GameObject: {fileID: 6291853977538404268}
  m_Enabled: 1
  m_EditorHideFlags: 0
  m_Script: {fileID: 11500000, guid: 8b9a305e18de0c04dbd257a21cd47087, type: 3}
  m_Name: 
  m_EditorClassIdentifier: 
  sharedProfile: {fileID: 11400000, guid: 0fbe39ccb0ff72f449e1f20637bc8690, type: 2}
  isGlobal: 0
  blendDistance: 0
  weight: 1
  priority: 0
--- !u!114 &7138546339692227617
MonoBehaviour:
  m_ObjectHideFlags: 0
  m_CorrespondingSourceObject: {fileID: 0}
  m_PrefabInstance: {fileID: 0}
  m_PrefabAsset: {fileID: 0}
  m_GameObject: {fileID: 6291853977538404268}
  m_Enabled: 1
  m_EditorHideFlags: 0
  m_Script: {fileID: 11500000, guid: 948f4100a11a5c24981795d21301da5c, type: 3}
  m_Name: 
  m_EditorClassIdentifier: 
  volumeTrigger: {fileID: 2432629883032242310}
  volumeLayer:
    serializedVersion: 2
    m_Bits: 2147483648
  stopNaNPropagation: 1
  finalBlitToCameraTarget: 0
  antialiasingMode: 0
  temporalAntialiasing:
    jitterSpread: 0.75
    sharpness: 0.25
    stationaryBlending: 0.95
    motionBlending: 0.85
  subpixelMorphologicalAntialiasing:
    quality: 2
  fastApproximateAntialiasing:
    fastMode: 0
    keepAlpha: 0
  fog:
    enabled: 1
    excludeSkybox: 1
  debugLayer:
    lightMeter:
      width: 512
      height: 256
      showCurves: 1
    histogram:
      width: 512
      height: 256
      channel: 3
    waveform:
      exposure: 0.12
      height: 256
    vectorscope:
      size: 256
      exposure: 0.12
    overlaySettings:
      linearDepth: 0
      motionColorIntensity: 4
      motionGridSize: 64
      colorBlindnessType: 0
      colorBlindnessStrength: 1
  m_Resources: {fileID: 11400000, guid: d82512f9c8e5d4a4d938b575d47f88d4, type: 2}
  m_ShowToolkit: 1
  m_ShowCustomSorter: 1
  breakBeforeColorGrading: 0
  m_BeforeTransparentBundles: []
  m_BeforeStackBundles: []
  m_AfterStackBundles:
  - assemblyQualifiedName: UnityEngine.Rendering.PostProcessing.Blur, Assembly-CSharp,
      Version=0.0.0.0, Culture=neutral, PublicKeyToken=null
  - assemblyQualifiedName: Fuzz, Assembly-CSharp, Version=0.0.0.0, Culture=neutral,
      PublicKeyToken=null
--- !u!114 &2919889226823943126
MonoBehaviour:
  m_ObjectHideFlags: 0
  m_CorrespondingSourceObject: {fileID: 0}
  m_PrefabInstance: {fileID: 0}
  m_PrefabAsset: {fileID: 0}
  m_GameObject: {fileID: 6291853977538404268}
  m_Enabled: 1
  m_EditorHideFlags: 0
  m_Script: {fileID: 11500000, guid: 292a0d9f7e1ddd14da1ac10e5139ed91, type: 3}
  m_Name: 
  m_EditorClassIdentifier: 
  m_PlayerCamera: {fileID: 11400000, guid: 7e55515a48c0bda4d9cb1a2c606e3a0e, type: 2}
--- !u!1 &6761399160307730482
GameObject:
  m_ObjectHideFlags: 0
  m_CorrespondingSourceObject: {fileID: 0}
  m_PrefabInstance: {fileID: 0}
  m_PrefabAsset: {fileID: 0}
  serializedVersion: 6
  m_Component:
  - component: {fileID: 2493838014503354771}
  - component: {fileID: 7093507511837815515}
  m_Layer: 0
  m_Name: SkyRegionColor
  m_TagString: Untagged
  m_Icon: {fileID: 0}
  m_NavMeshLayer: 0
  m_StaticEditorFlags: 0
  m_IsActive: 1
--- !u!4 &2493838014503354771
Transform:
  m_ObjectHideFlags: 0
  m_CorrespondingSourceObject: {fileID: 0}
  m_PrefabInstance: {fileID: 0}
  m_PrefabAsset: {fileID: 0}
  m_GameObject: {fileID: 6761399160307730482}
  m_LocalRotation: {x: -0, y: -0, z: -0, w: 1}
  m_LocalPosition: {x: 0, y: 0, z: 0}
  m_LocalScale: {x: 1, y: 1, z: 1}
  m_ConstrainProportionsScale: 0
  m_Children: []
  m_Father: {fileID: 5509592097533476979}
  m_RootOrder: 1
  m_LocalEulerAnglesHint: {x: 0, y: 0, z: 0}
--- !u!114 &7093507511837815515
MonoBehaviour:
  m_ObjectHideFlags: 0
  m_CorrespondingSourceObject: {fileID: 0}
  m_PrefabInstance: {fileID: 0}
  m_PrefabAsset: {fileID: 0}
  m_GameObject: {fileID: 6761399160307730482}
  m_Enabled: 1
  m_EditorHideFlags: 0
  m_Script: {fileID: 11500000, guid: e123972a837714f66a549f2071460e50, type: 3}
  m_Name: 
  m_EditorClassIdentifier: 
  m_ChangeDuration: 6.9
  m_RegionEntered: {fileID: 11400000, guid: 2e7aa35edf29f6c418f1cf45dd2488c9, type: 2}
--- !u!1 &8862013696102873625
GameObject:
  m_ObjectHideFlags: 0
  m_CorrespondingSourceObject: {fileID: 0}
  m_PrefabInstance: {fileID: 0}
  m_PrefabAsset: {fileID: 0}
  serializedVersion: 6
  m_Component:
  - component: {fileID: 2020649436877692017}
  - component: {fileID: 7440889232370642134}
  - component: {fileID: 2194390757016325871}
  m_Layer: 12
  m_Name: Sky_Consetllation.1
  m_TagString: Untagged
  m_Icon: {fileID: 0}
  m_NavMeshLayer: 0
  m_StaticEditorFlags: 0
  m_IsActive: 1
--- !u!4 &2020649436877692017
Transform:
  m_ObjectHideFlags: 0
  m_CorrespondingSourceObject: {fileID: 0}
  m_PrefabInstance: {fileID: 0}
  m_PrefabAsset: {fileID: 0}
  m_GameObject: {fileID: 8862013696102873625}
  m_LocalRotation: {x: -0, y: -0, z: -0, w: 1}
  m_LocalPosition: {x: -7.5473948, y: 4.2788277, z: -3.8455896}
  m_LocalScale: {x: 1, y: 1, z: 1}
  m_ConstrainProportionsScale: 0
  m_Children: []
  m_Father: {fileID: 1211699233898172182}
  m_RootOrder: 4
  m_LocalEulerAnglesHint: {x: 0, y: 0, z: 0}
--- !u!120 &7440889232370642134
LineRenderer:
  m_ObjectHideFlags: 0
  m_CorrespondingSourceObject: {fileID: 0}
  m_PrefabInstance: {fileID: 0}
  m_PrefabAsset: {fileID: 0}
  m_GameObject: {fileID: 8862013696102873625}
  m_Enabled: 1
  m_CastShadows: 0
  m_ReceiveShadows: 0
  m_DynamicOccludee: 1
  m_StaticShadowCaster: 0
  m_MotionVectors: 0
  m_LightProbeUsage: 0
  m_ReflectionProbeUsage: 0
  m_RayTracingMode: 0
  m_RayTraceProcedural: 0
  m_RenderingLayerMask: 1
  m_RendererPriority: 0
  m_Materials:
  - {fileID: 10306, guid: 0000000000000000f000000000000000, type: 0}
  m_StaticBatchInfo:
    firstSubMesh: 0
    subMeshCount: 0
  m_StaticBatchRoot: {fileID: 0}
  m_ProbeAnchor: {fileID: 0}
  m_LightProbeVolumeOverride: {fileID: 0}
  m_ScaleInLightmap: 1
  m_ReceiveGI: 1
  m_PreserveUVs: 0
  m_IgnoreNormalsForChartDetection: 0
  m_ImportantGI: 0
  m_StitchLightmapSeams: 1
  m_SelectedEditorRenderState: 3
  m_MinimumChartSize: 4
  m_AutoUVMaxDistance: 0.5
  m_AutoUVMaxAngle: 89
  m_LightmapParameters: {fileID: 0}
  m_SortingLayerID: 0
  m_SortingLayer: 0
  m_SortingOrder: 0
  m_Positions:
  - {x: -0.4205413, y: 2.112941, z: 2.0628169}
  - {x: -0.4205413, y: 1.325249, z: 0.8495679}
  - {x: -0.4205413, y: 2.4424188, z: -0.994051}
  - {x: -0.4205413, y: 0.30627632, z: -0.6384187}
  - {x: -2.8779762, y: 0.20139313, z: 1.0992076}
  m_Parameters:
    serializedVersion: 3
    widthMultiplier: 0.03
    widthCurve:
      serializedVersion: 2
      m_Curve:
      - serializedVersion: 3
        time: 0
        value: 1
        inSlope: 0
        outSlope: 0
        tangentMode: 0
        weightedMode: 0
        inWeight: 0.33333334
        outWeight: 0.33333334
      m_PreInfinity: 2
      m_PostInfinity: 2
      m_RotationOrder: 4
    colorGradient:
      serializedVersion: 2
      key0: {r: 1, g: 1, b: 1, a: 1}
      key1: {r: 1, g: 1, b: 1, a: 1}
      key2: {r: 0, g: 0, b: 0, a: 0}
      key3: {r: 0, g: 0, b: 0, a: 0}
      key4: {r: 0, g: 0, b: 0, a: 0}
      key5: {r: 0, g: 0, b: 0, a: 0}
      key6: {r: 0, g: 0, b: 0, a: 0}
      key7: {r: 0, g: 0, b: 0, a: 0}
      ctime0: 0
      ctime1: 65535
      ctime2: 0
      ctime3: 0
      ctime4: 0
      ctime5: 0
      ctime6: 0
      ctime7: 0
      atime0: 0
      atime1: 65535
      atime2: 0
      atime3: 0
      atime4: 0
      atime5: 0
      atime6: 0
      atime7: 0
      m_Mode: 0
      m_NumColorKeys: 2
      m_NumAlphaKeys: 2
    numCornerVertices: 0
    numCapVertices: 0
    alignment: 0
    textureMode: 0
    shadowBias: 0.5
    generateLightingData: 0
  m_UseWorldSpace: 0
  m_Loop: 0
--- !u!114 &2194390757016325871
MonoBehaviour:
  m_ObjectHideFlags: 0
  m_CorrespondingSourceObject: {fileID: 0}
  m_PrefabInstance: {fileID: 0}
  m_PrefabAsset: {fileID: 0}
  m_GameObject: {fileID: 8862013696102873625}
  m_Enabled: 1
  m_EditorHideFlags: 0
  m_Script: {fileID: 11500000, guid: 493e62dd96ffb4a158ba3918a0472c53, type: 3}
  m_Name: 
  m_EditorClassIdentifier: 
  m_Coordinate:
    Radius: 9.49
    Zenith: 26.8
    Azimuth: 27
--- !u!1001 &197622070490828666
PrefabInstance:
  m_ObjectHideFlags: 0
  serializedVersion: 2
  m_Modification:
    m_TransformParent: {fileID: 1211699233898172182}
    m_Modifications:
    - target: {fileID: 2001532425552236781, guid: 6a2a1fa7651f74cb9a45d92317220847, type: 3}
      propertyPath: m_Coordinate.Radius
      value: 6.9
      objectReference: {fileID: 0}
    - target: {fileID: 2001532425552236781, guid: 6a2a1fa7651f74cb9a45d92317220847, type: 3}
      propertyPath: m_Coordinate.Zenith
      value: -90
      objectReference: {fileID: 0}
    - target: {fileID: 2001532425552236781, guid: 6a2a1fa7651f74cb9a45d92317220847, type: 3}
      propertyPath: m_Coordinate.Azimuth
      value: -73
      objectReference: {fileID: 0}
    - target: {fileID: 4351708547595080899, guid: 6a2a1fa7651f74cb9a45d92317220847, type: 3}
      propertyPath: m_Name
      value: Sky_Moon.0
      objectReference: {fileID: 0}
    - target: {fileID: 5674648608656869271, guid: 6a2a1fa7651f74cb9a45d92317220847, type: 3}
      propertyPath: m_RootOrder
      value: 2
      objectReference: {fileID: 0}
    - target: {fileID: 5674648608656869271, guid: 6a2a1fa7651f74cb9a45d92317220847, type: 3}
      propertyPath: m_LocalPosition.x
      value: 0.00000017636367
      objectReference: {fileID: 0}
    - target: {fileID: 5674648608656869271, guid: 6a2a1fa7651f74cb9a45d92317220847, type: 3}
      propertyPath: m_LocalPosition.y
      value: -6.9
      objectReference: {fileID: 0}
    - target: {fileID: 5674648608656869271, guid: 6a2a1fa7651f74cb9a45d92317220847, type: 3}
      propertyPath: m_LocalPosition.z
      value: -0.0000005768594
      objectReference: {fileID: 0}
    - target: {fileID: 5674648608656869271, guid: 6a2a1fa7651f74cb9a45d92317220847, type: 3}
      propertyPath: m_LocalRotation.w
      value: 1
      objectReference: {fileID: 0}
    - target: {fileID: 5674648608656869271, guid: 6a2a1fa7651f74cb9a45d92317220847, type: 3}
      propertyPath: m_LocalRotation.x
      value: -0
      objectReference: {fileID: 0}
    - target: {fileID: 5674648608656869271, guid: 6a2a1fa7651f74cb9a45d92317220847, type: 3}
      propertyPath: m_LocalRotation.y
      value: -0
      objectReference: {fileID: 0}
    - target: {fileID: 5674648608656869271, guid: 6a2a1fa7651f74cb9a45d92317220847, type: 3}
      propertyPath: m_LocalRotation.z
      value: -0
      objectReference: {fileID: 0}
    - target: {fileID: 5674648608656869271, guid: 6a2a1fa7651f74cb9a45d92317220847, type: 3}
      propertyPath: m_LocalEulerAnglesHint.x
      value: 0
      objectReference: {fileID: 0}
    - target: {fileID: 5674648608656869271, guid: 6a2a1fa7651f74cb9a45d92317220847, type: 3}
      propertyPath: m_LocalEulerAnglesHint.y
      value: 0
      objectReference: {fileID: 0}
    - target: {fileID: 5674648608656869271, guid: 6a2a1fa7651f74cb9a45d92317220847, type: 3}
      propertyPath: m_LocalEulerAnglesHint.z
      value: 0
      objectReference: {fileID: 0}
    - target: {fileID: 6210921941055231107, guid: 6a2a1fa7651f74cb9a45d92317220847, type: 3}
      propertyPath: m_ZenithPeriod
      value: 600
      objectReference: {fileID: 0}
    - target: {fileID: 6210921941055231107, guid: 6a2a1fa7651f74cb9a45d92317220847, type: 3}
      propertyPath: m_AzimuthPeriod
      value: 3600
      objectReference: {fileID: 0}
    m_RemovedComponents: []
  m_SourcePrefab: {fileID: 100100000, guid: 6a2a1fa7651f74cb9a45d92317220847, type: 3}
--- !u!4 &5511982502258559213 stripped
Transform:
  m_CorrespondingSourceObject: {fileID: 5674648608656869271, guid: 6a2a1fa7651f74cb9a45d92317220847, type: 3}
  m_PrefabInstance: {fileID: 197622070490828666}
  m_PrefabAsset: {fileID: 0}
--- !u!1001 &1477261470179621556
PrefabInstance:
  m_ObjectHideFlags: 0
  serializedVersion: 2
  m_Modification:
    m_TransformParent: {fileID: 1211699233898172182}
    m_Modifications:
    - target: {fileID: 1610738649217079196, guid: 195db6a9bf0e141ad8841d60226220d5, type: 3}
      propertyPath: m_Coordinate.Radius
      value: 3.4
      objectReference: {fileID: 0}
    - target: {fileID: 1610738649217079196, guid: 195db6a9bf0e141ad8841d60226220d5, type: 3}
      propertyPath: m_Coordinate.Zenith
      value: -34
      objectReference: {fileID: 0}
    - target: {fileID: 1610738649217079196, guid: 195db6a9bf0e141ad8841d60226220d5, type: 3}
      propertyPath: m_Coordinate.Azimuth
      value: 31
      objectReference: {fileID: 0}
    - target: {fileID: 3600907971439858610, guid: 195db6a9bf0e141ad8841d60226220d5, type: 3}
      propertyPath: m_Name
      value: Sky_Sun.1
      objectReference: {fileID: 0}
    - target: {fileID: 3780816513031448172, guid: 195db6a9bf0e141ad8841d60226220d5, type: 3}
      propertyPath: m_ZenithPeriod
      value: 420
      objectReference: {fileID: 0}
    - target: {fileID: 3780816513031448172, guid: 195db6a9bf0e141ad8841d60226220d5, type: 3}
      propertyPath: m_AzimuthPeriod
      value: 2400
      objectReference: {fileID: 0}
    - target: {fileID: 4853974119601684710, guid: 195db6a9bf0e141ad8841d60226220d5, type: 3}
      propertyPath: m_RootOrder
      value: 1
      objectReference: {fileID: 0}
    - target: {fileID: 4853974119601684710, guid: 195db6a9bf0e141ad8841d60226220d5, type: 3}
      propertyPath: m_LocalPosition.x
      value: -2.4161215
      objectReference: {fileID: 0}
    - target: {fileID: 4853974119601684710, guid: 195db6a9bf0e141ad8841d60226220d5, type: 3}
      propertyPath: m_LocalPosition.y
      value: -1.9012557
      objectReference: {fileID: 0}
    - target: {fileID: 4853974119601684710, guid: 195db6a9bf0e141ad8841d60226220d5, type: 3}
      propertyPath: m_LocalPosition.z
      value: -1.4517522
      objectReference: {fileID: 0}
    - target: {fileID: 4853974119601684710, guid: 195db6a9bf0e141ad8841d60226220d5, type: 3}
      propertyPath: m_LocalRotation.w
      value: 1
      objectReference: {fileID: 0}
    - target: {fileID: 4853974119601684710, guid: 195db6a9bf0e141ad8841d60226220d5, type: 3}
      propertyPath: m_LocalRotation.x
      value: -0
      objectReference: {fileID: 0}
    - target: {fileID: 4853974119601684710, guid: 195db6a9bf0e141ad8841d60226220d5, type: 3}
      propertyPath: m_LocalRotation.y
      value: -0
      objectReference: {fileID: 0}
    - target: {fileID: 4853974119601684710, guid: 195db6a9bf0e141ad8841d60226220d5, type: 3}
      propertyPath: m_LocalRotation.z
      value: -0
      objectReference: {fileID: 0}
    - target: {fileID: 4853974119601684710, guid: 195db6a9bf0e141ad8841d60226220d5, type: 3}
      propertyPath: m_LocalEulerAnglesHint.x
      value: 0
      objectReference: {fileID: 0}
    - target: {fileID: 4853974119601684710, guid: 195db6a9bf0e141ad8841d60226220d5, type: 3}
      propertyPath: m_LocalEulerAnglesHint.y
      value: 0
      objectReference: {fileID: 0}
    - target: {fileID: 4853974119601684710, guid: 195db6a9bf0e141ad8841d60226220d5, type: 3}
      propertyPath: m_LocalEulerAnglesHint.z
      value: 0
      objectReference: {fileID: 0}
    - target: {fileID: 8899869393480421399, guid: 195db6a9bf0e141ad8841d60226220d5, type: 3}
      propertyPath: m_OnColor.b
      value: 2.8862746
      objectReference: {fileID: 0}
    - target: {fileID: 8899869393480421399, guid: 195db6a9bf0e141ad8841d60226220d5, type: 3}
      propertyPath: m_OnColor.g
      value: 0.95686275
      objectReference: {fileID: 0}
    - target: {fileID: 8899869393480421399, guid: 195db6a9bf0e141ad8841d60226220d5, type: 3}
      propertyPath: m_OnColor.r
      value: 3.545098
      objectReference: {fileID: 0}
    - target: {fileID: 8899869393480421399, guid: 195db6a9bf0e141ad8841d60226220d5, type: 3}
      propertyPath: m_OffColor.b
      value: 0.17254901
      objectReference: {fileID: 0}
    - target: {fileID: 8899869393480421399, guid: 195db6a9bf0e141ad8841d60226220d5, type: 3}
      propertyPath: m_OffColor.g
      value: 0.56615096
      objectReference: {fileID: 0}
    - target: {fileID: 8899869393480421399, guid: 195db6a9bf0e141ad8841d60226220d5, type: 3}
      propertyPath: m_OffColor.r
      value: 4
      objectReference: {fileID: 0}
    - target: {fileID: 8899869393480421399, guid: 195db6a9bf0e141ad8841d60226220d5, type: 3}
      propertyPath: m_HostColor.b
      value: 0.53776205
      objectReference: {fileID: 0}
    - target: {fileID: 8899869393480421399, guid: 195db6a9bf0e141ad8841d60226220d5, type: 3}
      propertyPath: m_HostColor.g
      value: 0.043137252
      objectReference: {fileID: 0}
    - target: {fileID: 8899869393480421399, guid: 195db6a9bf0e141ad8841d60226220d5, type: 3}
      propertyPath: m_ClientColor.b
      value: 0.23843002
      objectReference: {fileID: 0}
    - target: {fileID: 8899869393480421399, guid: 195db6a9bf0e141ad8841d60226220d5, type: 3}
      propertyPath: m_ClientColor.g
      value: 0.81633514
      objectReference: {fileID: 0}
    - target: {fileID: 8899869393480421399, guid: 195db6a9bf0e141ad8841d60226220d5, type: 3}
      propertyPath: m_ClientColor.r
      value: 0.8867924
      objectReference: {fileID: 0}
    m_RemovedComponents: []
  m_SourcePrefab: {fileID: 100100000, guid: 195db6a9bf0e141ad8841d60226220d5, type: 3}
--- !u!4 &6331092150681418322 stripped
Transform:
  m_CorrespondingSourceObject: {fileID: 4853974119601684710, guid: 195db6a9bf0e141ad8841d60226220d5, type: 3}
  m_PrefabInstance: {fileID: 1477261470179621556}
  m_PrefabAsset: {fileID: 0}
--- !u!1001 &6269667009817662235
PrefabInstance:
  m_ObjectHideFlags: 0
  serializedVersion: 2
  m_Modification:
    m_TransformParent: {fileID: 1211699233898172182}
    m_Modifications:
    - target: {fileID: 1610738649217079196, guid: 195db6a9bf0e141ad8841d60226220d5, type: 3}
      propertyPath: m_Coordinate.Zenith
      value: 90
      objectReference: {fileID: 0}
    - target: {fileID: 3600907971439858610, guid: 195db6a9bf0e141ad8841d60226220d5, type: 3}
      propertyPath: m_Name
      value: Sky_Sun.0
      objectReference: {fileID: 0}
    - target: {fileID: 4853974119601684710, guid: 195db6a9bf0e141ad8841d60226220d5, type: 3}
      propertyPath: m_RootOrder
      value: 0
      objectReference: {fileID: 0}
    - target: {fileID: 4853974119601684710, guid: 195db6a9bf0e141ad8841d60226220d5, type: 3}
      propertyPath: m_LocalPosition.x
      value: 0
      objectReference: {fileID: 0}
    - target: {fileID: 4853974119601684710, guid: 195db6a9bf0e141ad8841d60226220d5, type: 3}
      propertyPath: m_LocalPosition.y
      value: 2.2
      objectReference: {fileID: 0}
    - target: {fileID: 4853974119601684710, guid: 195db6a9bf0e141ad8841d60226220d5, type: 3}
      propertyPath: m_LocalPosition.z
      value: 0
      objectReference: {fileID: 0}
    - target: {fileID: 4853974119601684710, guid: 195db6a9bf0e141ad8841d60226220d5, type: 3}
      propertyPath: m_LocalRotation.w
      value: 1
      objectReference: {fileID: 0}
    - target: {fileID: 4853974119601684710, guid: 195db6a9bf0e141ad8841d60226220d5, type: 3}
      propertyPath: m_LocalRotation.x
      value: -0
      objectReference: {fileID: 0}
    - target: {fileID: 4853974119601684710, guid: 195db6a9bf0e141ad8841d60226220d5, type: 3}
      propertyPath: m_LocalRotation.y
      value: -0
      objectReference: {fileID: 0}
    - target: {fileID: 4853974119601684710, guid: 195db6a9bf0e141ad8841d60226220d5, type: 3}
      propertyPath: m_LocalRotation.z
      value: -0
      objectReference: {fileID: 0}
    - target: {fileID: 4853974119601684710, guid: 195db6a9bf0e141ad8841d60226220d5, type: 3}
      propertyPath: m_LocalEulerAnglesHint.x
      value: 0
      objectReference: {fileID: 0}
    - target: {fileID: 4853974119601684710, guid: 195db6a9bf0e141ad8841d60226220d5, type: 3}
      propertyPath: m_LocalEulerAnglesHint.y
      value: 0
      objectReference: {fileID: 0}
    - target: {fileID: 4853974119601684710, guid: 195db6a9bf0e141ad8841d60226220d5, type: 3}
      propertyPath: m_LocalEulerAnglesHint.z
      value: 0
      objectReference: {fileID: 0}
    - target: {fileID: 8899869393480421399, guid: 195db6a9bf0e141ad8841d60226220d5, type: 3}
      propertyPath: m_OnColor.b
      value: 0.4879581
      objectReference: {fileID: 0}
    - target: {fileID: 8899869393480421399, guid: 195db6a9bf0e141ad8841d60226220d5, type: 3}
      propertyPath: m_OnColor.g
      value: 1.827451
      objectReference: {fileID: 0}
    - target: {fileID: 8899869393480421399, guid: 195db6a9bf0e141ad8841d60226220d5, type: 3}
      propertyPath: m_OnColor.r
      value: 1.0524586
      objectReference: {fileID: 0}
    - target: {fileID: 8899869393480421399, guid: 195db6a9bf0e141ad8841d60226220d5, type: 3}
      propertyPath: m_OffColor.b
      value: 0.17254902
      objectReference: {fileID: 0}
    - target: {fileID: 8899869393480421399, guid: 195db6a9bf0e141ad8841d60226220d5, type: 3}
      propertyPath: m_OffColor.g
      value: 0.29803923
      objectReference: {fileID: 0}
    - target: {fileID: 8899869393480421399, guid: 195db6a9bf0e141ad8841d60226220d5, type: 3}
      propertyPath: m_OffColor.r
      value: 4
      objectReference: {fileID: 0}
    - target: {fileID: 8899869393480421399, guid: 195db6a9bf0e141ad8841d60226220d5, type: 3}
      propertyPath: m_ClientColor.b
      value: 0.23740657
      objectReference: {fileID: 0}
    - target: {fileID: 8899869393480421399, guid: 195db6a9bf0e141ad8841d60226220d5, type: 3}
      propertyPath: m_ClientColor.g
      value: 0.9150943
      objectReference: {fileID: 0}
    - target: {fileID: 8899869393480421399, guid: 195db6a9bf0e141ad8841d60226220d5, type: 3}
      propertyPath: m_ClientColor.r
      value: 0.52417403
      objectReference: {fileID: 0}
    m_RemovedComponents: []
  m_SourcePrefab: {fileID: 100100000, guid: 195db6a9bf0e141ad8841d60226220d5, type: 3}
--- !u!4 &1467772517285794813 stripped
Transform:
  m_CorrespondingSourceObject: {fileID: 4853974119601684710, guid: 195db6a9bf0e141ad8841d60226220d5, type: 3}
  m_PrefabInstance: {fileID: 6269667009817662235}
  m_PrefabAsset: {fileID: 0}
