# Blender MTL File: 'F2BB.blend'
# Material Count: 14

newmtl Shape_77
Ns 0.000000
Ka 1.000000 1.000000 1.000000
Kd 0.175000 0.187500 0.237500
Ks 0.000000 0.000000 0.000000
Ke 0.000000 0.000000 0.000000
Ni 1.000000
d 1.000000
illum 2
map_Kd 10A14A29_c.png

newmtl Shape_78
Ns 0.000000
Ka 1.000000 1.000000 1.000000
Kd 0.771875 0.771875 0.771875
Ks 0.000000 0.000000 0.000000
Ke 0.000000 0.000000 0.000000
Ni 1.000000
d 1.000000
illum 2
map_Kd 10A14A29_c.png

newmtl Shape_79
Ns 0.000000
Ka 1.000000 1.000000 1.000000
Kd 0.637500 0.637500 0.637500
Ks 0.000000 0.000000 0.000000
Ke 0.000000 0.000000 0.000000
Ni 1.000000
d 1.000000
illum 2
map_Kd 3C96C6A_c.png

newmtl Shape_80
Ns 0.000000
Ka 1.000000 1.000000 1.000000
Kd 0.756250 0.756250 0.756250
Ks 0.000000 0.000000 0.000000
Ke 0.000000 0.000000 0.000000
Ni 1.000000
d 1.000000
illum 2
map_Kd 3C96C6A_c.png

newmtl Shape_81
Ns 0.000000
Ka 1.000000 1.000000 1.000000
Kd 0.296875 0.296875 0.296875
Ks 0.000000 0.000000 0.000000
Ke 0.000000 0.000000 0.000000
Ni 1.000000
d 1.000000
illum 2
map_Kd 430A12DC_c.png

newmtl Shape_82
Ns 0.000000
Ka 1.000000 1.000000 1.000000
Kd 0.756250 0.756250 0.756250
Ks 0.000000 0.000000 0.000000
Ke 0.000000 0.000000 0.000000
Ni 1.000000
d 1.000000
illum 2
map_Kd 7A7501A5_c.png

newmtl Shape_83
Ns 0.000000
Ka 1.000000 1.000000 1.000000
Kd 0.715625 0.715625 0.715625
Ks 0.000000 0.000000 0.000000
Ke 0.000000 0.000000 0.000000
Ni 1.000000
d 1.000000
illum 2
map_Kd 2BF33E2A_c.png

newmtl Shape_84
Ns 0.000000
Ka 1.000000 1.000000 1.000000
Kd 0.296875 0.296875 0.296875
Ks 0.000000 0.000000 0.000000
Ke 0.000000 0.000000 0.000000
Ni 1.000000
d 1.000000
illum 2
map_Kd 59FF6061_c.png

newmtl Shape_85
Ns 0.000000
Ka 1.000000 1.000000 1.000000
Kd 0.737500 0.737500 0.737500
Ks 0.000000 0.000000 0.000000
Ke 0.000000 0.000000 0.000000
Ni 1.000000
d 1.000000
illum 2
map_Kd 35FA7315_c.png

newmtl Shape_86
Ns 0.000000
Ka 1.000000 1.000000 1.000000
Kd 0.737500 0.737500 0.737500
Ks 0.000000 0.000000 0.000000
Ke 0.000000 0.000000 0.000000
Ni 1.000000
d 1.000000
illum 2
map_Kd 7EF5C8A8_c.png

newmtl Shape_87
Ns 0.000000
Ka 1.000000 1.000000 1.000000
Kd 0.725000 0.725000 0.725000
Ks 0.000000 0.000000 0.000000
Ke 0.000000 0.000000 0.000000
Ni 1.000000
d 1.000000
illum 2
map_Kd 7EF5C8A8_c.png

newmtl Shape_88
Ns 0.000000
Ka 1.000000 1.000000 1.000000
Kd 0.725000 0.725000 0.725000
Ks 0.000000 0.000000 0.000000
Ke 0.000000 0.000000 0.000000
Ni 1.000000
d 1.000000
illum 2
map_Kd 35FA7315_c.png

newmtl Shape_89
Ns 0.000000
Ka 1.000000 1.000000 1.000000
Kd 0.250000 0.250000 0.250000
Ks 0.000000 0.000000 0.000000
Ke 0.000000 0.000000 0.000000
Ni 1.000000
d 1.000000
illum 2
map_Kd 7EF5C8A8_c.png

newmtl Shape_90
Ns 0.000000
Ka 1.000000 1.000000 1.000000
Kd 0.250000 0.250000 0.250000
Ks 0.000000 0.000000 0.000000
Ke 0.000000 0.000000 0.000000
Ni 1.000000
d 1.000000
illum 2
map_Kd 35FA7315_c.png
