%YAML 1.1
%TAG !u! tag:unity3d.com,2011:
--- !u!1 &543155030233629438
GameObject:
  m_ObjectHideFlags: 0
  m_CorrespondingSourceObject: {fileID: 0}
  m_PrefabInstance: {fileID: 0}
  m_PrefabAsset: {fileID: 0}
  serializedVersion: 6
  m_Component:
  - component: {fileID: 6332355809547969782}
  m_Layer: 0
  m_Name: CloudTown
  m_TagString: Untagged
  m_Icon: {fileID: 0}
  m_NavMeshLayer: 0
  m_StaticEditorFlags: 0
  m_IsActive: 1
--- !u!4 &6332355809547969782
Transform:
  m_ObjectHideFlags: 0
  m_CorrespondingSourceObject: {fileID: 0}
  m_PrefabInstance: {fileID: 0}
  m_PrefabAsset: {fileID: 0}
  m_GameObject: {fileID: 543155030233629438}
  m_LocalRotation: {x: -0, y: -0, z: -0, w: 1}
  m_LocalPosition: {x: -44.15, y: 360, z: 19.88}
  m_LocalScale: {x: 3.25, y: 3.25, z: 3.25}
  m_ConstrainProportionsScale: 0
  m_Children:
  - {fileID: 3611849710172266625}
  - {fileID: 143059236739613897}
  m_Father: {fileID: 0}
  m_RootOrder: 0
  m_LocalEulerAnglesHint: {x: 0, y: 0, z: 0}
--- !u!1 &5099212275394294472
GameObject:
  m_ObjectHideFlags: 0
  m_CorrespondingSourceObject: {fileID: 0}
  m_PrefabInstance: {fileID: 0}
  m_PrefabAsset: {fileID: 0}
  serializedVersion: 6
  m_Component:
  - component: {fileID: 143059236739613897}
  - component: {fileID: 6040195290444967682}
  - component: {fileID: 4216642526799014787}
  - component: {fileID: 5119560826899667825}
  m_Layer: 0
  m_Name: Floor
  m_TagString: Untagged
  m_Icon: {fileID: 0}
  m_NavMeshLayer: 0
  m_StaticEditorFlags: 2147483647
  m_IsActive: 1
--- !u!4 &143059236739613897
Transform:
  m_ObjectHideFlags: 0
  m_CorrespondingSourceObject: {fileID: 0}
  m_PrefabInstance: {fileID: 0}
  m_PrefabAsset: {fileID: 0}
  m_GameObject: {fileID: 5099212275394294472}
  m_LocalRotation: {x: -0, y: -0, z: -0, w: 1}
  m_LocalPosition: {x: 0, y: 0, z: 0}
  m_LocalScale: {x: 3.25, y: 3.25, z: 3.25}
  m_ConstrainProportionsScale: 1
  m_Children: []
  m_Father: {fileID: 6332355809547969782}
  m_RootOrder: 1
  m_LocalEulerAnglesHint: {x: 0, y: 0, z: 0}
--- !u!33 &6040195290444967682
MeshFilter:
  m_ObjectHideFlags: 0
  m_CorrespondingSourceObject: {fileID: 0}
  m_PrefabInstance: {fileID: 0}
  m_PrefabAsset: {fileID: 0}
  m_GameObject: {fileID: 5099212275394294472}
  m_Mesh: {fileID: 10209, guid: 0000000000000000e000000000000000, type: 0}
--- !u!23 &4216642526799014787
MeshRenderer:
  m_ObjectHideFlags: 0
  m_CorrespondingSourceObject: {fileID: 0}
  m_PrefabInstance: {fileID: 0}
  m_PrefabAsset: {fileID: 0}
  m_GameObject: {fileID: 5099212275394294472}
  m_Enabled: 1
  m_CastShadows: 1
  m_ReceiveShadows: 1
  m_DynamicOccludee: 1
  m_StaticShadowCaster: 0
  m_MotionVectors: 1
  m_LightProbeUsage: 1
  m_ReflectionProbeUsage: 1
  m_RayTracingMode: 2
  m_RayTraceProcedural: 0
  m_RenderingLayerMask: 1
  m_RendererPriority: 0
  m_Materials:
  - {fileID: 10303, guid: 0000000000000000f000000000000000, type: 0}
  m_StaticBatchInfo:
    firstSubMesh: 0
    subMeshCount: 0
  m_StaticBatchRoot: {fileID: 0}
  m_ProbeAnchor: {fileID: 0}
  m_LightProbeVolumeOverride: {fileID: 0}
  m_ScaleInLightmap: 1
  m_ReceiveGI: 1
  m_PreserveUVs: 0
  m_IgnoreNormalsForChartDetection: 0
  m_ImportantGI: 0
  m_StitchLightmapSeams: 1
  m_SelectedEditorRenderState: 3
  m_MinimumChartSize: 4
  m_AutoUVMaxDistance: 0.5
  m_AutoUVMaxAngle: 89
  m_LightmapParameters: {fileID: 0}
  m_SortingLayerID: 0
  m_SortingLayer: 0
  m_SortingOrder: 0
  m_AdditionalVertexStreams: {fileID: 0}
--- !u!64 &5119560826899667825
MeshCollider:
  m_ObjectHideFlags: 0
  m_CorrespondingSourceObject: {fileID: 0}
  m_PrefabInstance: {fileID: 0}
  m_PrefabAsset: {fileID: 0}
  m_GameObject: {fileID: 5099212275394294472}
  m_Material: {fileID: 0}
  m_IsTrigger: 0
  m_Enabled: 1
  serializedVersion: 4
  m_Convex: 0
  m_CookingOptions: 30
  m_Mesh: {fileID: 10209, guid: 0000000000000000e000000000000000, type: 0}
--- !u!1001 &6764713334896186246
PrefabInstance:
  m_ObjectHideFlags: 0
  serializedVersion: 2
  m_Modification:
    m_TransformParent: {fileID: 6332355809547969782}
    m_Modifications:
    - target: {fileID: 4436901530631939519, guid: 19e59f22112e6406ebc222d8211786d6, type: 3}
      propertyPath: m_Name
      value: RegionDetector
      objectReference: {fileID: 0}
    - target: {fileID: 6209746182864954396, guid: 19e59f22112e6406ebc222d8211786d6, type: 3}
      propertyPath: m_Region
      value: 
      objectReference: {fileID: 11400000, guid: 6be8439c91ae1414b8b43308302833e7, type: 2}
    - target: {fileID: 6209746182864954396, guid: 19e59f22112e6406ebc222d8211786d6, type: 3}
      propertyPath: m_RegionName
      value: Cloud Town
      objectReference: {fileID: 0}
    - target: {fileID: 6721125974724574963, guid: 19e59f22112e6406ebc222d8211786d6, type: 3}
      propertyPath: m_Radius
      value: 10.71
      objectReference: {fileID: 0}
    - target: {fileID: 8070108322830725895, guid: 19e59f22112e6406ebc222d8211786d6, type: 3}
      propertyPath: m_RootOrder
      value: 0
      objectReference: {fileID: 0}
    - target: {fileID: 8070108322830725895, guid: 19e59f22112e6406ebc222d8211786d6, type: 3}
      propertyPath: m_LocalPosition.x
      value: 0
      objectReference: {fileID: 0}
    - target: {fileID: 8070108322830725895, guid: 19e59f22112e6406ebc222d8211786d6, type: 3}
      propertyPath: m_LocalPosition.y
      value: 9.26
      objectReference: {fileID: 0}
    - target: {fileID: 8070108322830725895, guid: 19e59f22112e6406ebc222d8211786d6, type: 3}
      propertyPath: m_LocalPosition.z
      value: 0
      objectReference: {fileID: 0}
    - target: {fileID: 8070108322830725895, guid: 19e59f22112e6406ebc222d8211786d6, type: 3}
      propertyPath: m_LocalRotation.w
      value: 1
      objectReference: {fileID: 0}
    - target: {fileID: 8070108322830725895, guid: 19e59f22112e6406ebc222d8211786d6, type: 3}
      propertyPath: m_LocalRotation.x
      value: -0
      objectReference: {fileID: 0}
    - target: {fileID: 8070108322830725895, guid: 19e59f22112e6406ebc222d8211786d6, type: 3}
      propertyPath: m_LocalRotation.y
      value: -0
      objectReference: {fileID: 0}
    - target: {fileID: 8070108322830725895, guid: 19e59f22112e6406ebc222d8211786d6, type: 3}
      propertyPath: m_LocalRotation.z
      value: -0
      objectReference: {fileID: 0}
    - target: {fileID: 8070108322830725895, guid: 19e59f22112e6406ebc222d8211786d6, type: 3}
      propertyPath: m_LocalEulerAnglesHint.x
      value: 0
      objectReference: {fileID: 0}
    - target: {fileID: 8070108322830725895, guid: 19e59f22112e6406ebc222d8211786d6, type: 3}
      propertyPath: m_LocalEulerAnglesHint.y
      value: 0
      objectReference: {fileID: 0}
    - target: {fileID: 8070108322830725895, guid: 19e59f22112e6406ebc222d8211786d6, type: 3}
      propertyPath: m_LocalEulerAnglesHint.z
      value: 0
      objectReference: {fileID: 0}
    m_RemovedComponents: []
  m_SourcePrefab: {fileID: 100100000, guid: 19e59f22112e6406ebc222d8211786d6, type: 3}
--- !u!4 &3611849710172266625 stripped
Transform:
  m_CorrespondingSourceObject: {fileID: 8070108322830725895, guid: 19e59f22112e6406ebc222d8211786d6, type: 3}
  m_PrefabInstance: {fileID: 6764713334896186246}
  m_PrefabAsset: {fileID: 0}
