%YAML 1.1
%TAG !u! tag:unity3d.com,2011:
--- !u!1 &6447162626734944142
GameObject:
  m_ObjectHideFlags: 0
  m_CorrespondingSourceObject: {fileID: 0}
  m_PrefabInstance: {fileID: 0}
  m_PrefabAsset: {fileID: 0}
  serializedVersion: 6
  m_Component:
  - component: {fileID: 7872296399179037059}
  - component: {fileID: 7909417761360275760}
  - component: {fileID: 2443362069703871468}
  - component: {fileID: 1117427710589498426}
  - component: {fileID: 2897392744725145097}
  - component: {fileID: 3957745682249704239}
  - component: {fileID: 6310377860740112136}
  - component: {fileID: 8311241429826752157}
  m_Layer: 0
  m_Name: Entities
  m_TagString: Untagged
  m_Icon: {fileID: 0}
  m_NavMeshLayer: 0
  m_StaticEditorFlags: 2147483647
  m_IsActive: 1
--- !u!4 &7872296399179037059
Transform:
  m_ObjectHideFlags: 0
  m_CorrespondingSourceObject: {fileID: 0}
  m_PrefabInstance: {fileID: 0}
  m_PrefabAsset: {fileID: 0}
  m_GameObject: {fileID: 6447162626734944142}
  m_LocalRotation: {x: 0, y: 0, z: 0, w: 1}
  m_LocalPosition: {x: 0, y: 0, z: 0}
  m_LocalScale: {x: 1, y: 1, z: 1}
  m_ConstrainProportionsScale: 0
  m_Children: []
  m_Father: {fileID: 0}
  m_RootOrder: 0
  m_LocalEulerAnglesHint: {x: 0, y: 0, z: 0}
--- !u!114 &7909417761360275760
MonoBehaviour:
  m_ObjectHideFlags: 0
  m_CorrespondingSourceObject: {fileID: 0}
  m_PrefabInstance: {fileID: 0}
  m_PrefabAsset: {fileID: 0}
  m_GameObject: {fileID: 6447162626734944142}
  m_Enabled: 1
  m_EditorHideFlags: 0
  m_Script: {fileID: 11500000, guid: c23b859f4cf2c4b888733518b027653a, type: 3}
  m_Name: 
  m_EditorClassIdentifier: 
  m_Single: {fileID: 11400000, guid: 8ad8e32d8125540e8b5040f0b6c0d78c, type: 2}
--- !u!114 &2443362069703871468
MonoBehaviour:
  m_ObjectHideFlags: 0
  m_CorrespondingSourceObject: {fileID: 0}
  m_PrefabInstance: {fileID: 0}
  m_PrefabAsset: {fileID: 0}
  m_GameObject: {fileID: 6447162626734944142}
  m_Enabled: 1
  m_EditorHideFlags: 0
  m_Script: {fileID: 11500000, guid: 6ecf894bc0866420a9d1bf58d7746f88, type: 3}
  m_Name: 
  m_EditorClassIdentifier: 
  m_VisionRadius: 1000
  m_World: {fileID: 11400000, guid: a828a94e1e62f44a3a732304eba42ffd, type: 2}
--- !u!114 &1117427710589498426
MonoBehaviour:
  m_ObjectHideFlags: 0
  m_CorrespondingSourceObject: {fileID: 0}
  m_PrefabInstance: {fileID: 0}
  m_PrefabAsset: {fileID: 0}
  m_GameObject: {fileID: 6447162626734944142}
  m_Enabled: 1
  m_EditorHideFlags: 0
  m_Script: {fileID: 11500000, guid: bc02680958dbb4e709fedb6162e6f498, type: 3}
  m_Name: 
  m_EditorClassIdentifier: 
  m_All: []
  m_PlayerConnected: {fileID: 11400000, guid: 241e9fa7bdb084b3f80950fd6fa40bfa, type: 2}
  m_PlayerDisconnected: {fileID: 11400000, guid: fa04c622b172747cf8a63e0e443e93ff, type: 2}
  m_CurrentPlayerStarted: {fileID: 11400000, guid: 692e057a5d5cb4c9c9a5e9168ba1f0d8, type: 2}
  m_IsHost:
    _usage: 2
    _value: 0
    _constant: {fileID: 0}
    _variable: {fileID: 11400000, guid: 562ea9c4c723d4ba2a26fc6eb3e9c7c9, type: 2}
    _variableInstancer: {fileID: 0}
--- !u!114 &2897392744725145097
MonoBehaviour:
  m_ObjectHideFlags: 0
  m_CorrespondingSourceObject: {fileID: 0}
  m_PrefabInstance: {fileID: 0}
  m_PrefabAsset: {fileID: 0}
  m_GameObject: {fileID: 6447162626734944142}
  m_Enabled: 1
  m_EditorHideFlags: 0
  m_Script: {fileID: 11500000, guid: 2bb6484e254fa46b48d9292c45a47fcf, type: 3}
  m_Name: 
  m_EditorClassIdentifier: 
  m_SpawnedCharacter: {fileID: 11400000, guid: a5ded69631d7ef641857f73f4368df26, type: 2}
  m_DestroyedCharacter: {fileID: 11400000, guid: 043c83e16281ccd47b689ae408c6337e, type: 2}
  m_SwitchedCharacter: {fileID: 11400000, guid: d172e39dd96e14250b5df5e1f06a5402, type: 2}
--- !u!114 &3957745682249704239
MonoBehaviour:
  m_ObjectHideFlags: 0
  m_CorrespondingSourceObject: {fileID: 0}
  m_PrefabInstance: {fileID: 0}
  m_PrefabAsset: {fileID: 0}
  m_GameObject: {fileID: 6447162626734944142}
  m_Enabled: 1
  m_EditorHideFlags: 0
  m_Script: {fileID: 11500000, guid: 8750ecab285b147b4a447783dc603084, type: 3}
  m_Name: 
  m_EditorClassIdentifier: 
  m_HearingRadius: 100
  m_TalkingRadius: 3
--- !u!114 &6310377860740112136
MonoBehaviour:
  m_ObjectHideFlags: 0
  m_CorrespondingSourceObject: {fileID: 0}
  m_PrefabInstance: {fileID: 0}
  m_PrefabAsset: {fileID: 0}
  m_GameObject: {fileID: 6447162626734944142}
  m_Enabled: 1
  m_EditorHideFlags: 0
  m_Script: {fileID: 11500000, guid: 1c6b9c368b94944f9bd178b1fc41d119, type: 3}
  m_Name: 
  m_EditorClassIdentifier: 
  syncMode: 0
  syncInterval: 0.1
  m_All: []
  m_ChunkSize:
    _usage: 0
    _value: 69
    _constant: {fileID: 0}
    _variable: {fileID: 0}
    _variableInstancer: {fileID: 0}
  m_FlowerPlanted: {fileID: 11400000, guid: ffe352fbfc8cb4ed9b8cf44b5fc99134, type: 2}
  m_Store: {fileID: 11400000, guid: f46ec6bd3c68a40f19357a14468d6730, type: 2}
--- !u!114 &8311241429826752157
MonoBehaviour:
  m_ObjectHideFlags: 0
  m_CorrespondingSourceObject: {fileID: 0}
  m_PrefabInstance: {fileID: 0}
  m_PrefabAsset: {fileID: 0}
  m_GameObject: {fileID: 6447162626734944142}
  m_Enabled: 1
  m_EditorHideFlags: 0
  m_Script: {fileID: 11500000, guid: 9b91ecbcc199f4492b9a91e820070131, type: 3}
  m_Name: 
  m_EditorClassIdentifier: 
  sceneId: 0
  serverOnly: 0
  visible: 0
  m_AssetId: f6eacd8f0a8a144e8aae3b92583f466a
  hasSpawned: 0
