%YAML 1.1
%TAG !u! tag:unity3d.com,2011:
--- !u!1 &3807745228882858680
GameObject:
  m_ObjectHideFlags: 0
  m_CorrespondingSourceObject: {fileID: 0}
  m_PrefabInstance: {fileID: 0}
  m_PrefabAsset: {fileID: 0}
  serializedVersion: 6
  m_Component:
  - component: {fileID: 4717339052814314761}
  - component: {fileID: 751659286747916356}
  - component: {fileID: 8205632918090044409}
  - component: {fileID: 1253170219338843212}
  m_Layer: 12
  m_Name: Sun
  m_TagString: Untagged
  m_Icon: {fileID: 0}
  m_NavMeshLayer: 0
  m_StaticEditorFlags: 0
  m_IsActive: 1
--- !u!4 &4717339052814314761
Transform:
  m_ObjectHideFlags: 0
  m_CorrespondingSourceObject: {fileID: 0}
  m_PrefabInstance: {fileID: 0}
  m_PrefabAsset: {fileID: 0}
  m_GameObject: {fileID: 3807745228882858680}
  m_LocalRotation: {x: 0, y: 0, z: 0, w: 1}
  m_LocalPosition: {x: 0, y: 0, z: 0}
  m_LocalScale: {x: 1, y: 1, z: 1}
  m_ConstrainProportionsScale: 1
  m_Children: []
  m_Father: {fileID: 4853974119601684710}
  m_RootOrder: 0
  m_LocalEulerAnglesHint: {x: 0, y: 0, z: 0}
--- !u!33 &751659286747916356
MeshFilter:
  m_ObjectHideFlags: 0
  m_CorrespondingSourceObject: {fileID: 0}
  m_PrefabInstance: {fileID: 0}
  m_PrefabAsset: {fileID: 0}
  m_GameObject: {fileID: 3807745228882858680}
  m_Mesh: {fileID: 10207, guid: 0000000000000000e000000000000000, type: 0}
--- !u!23 &8205632918090044409
MeshRenderer:
  m_ObjectHideFlags: 0
  m_CorrespondingSourceObject: {fileID: 0}
  m_PrefabInstance: {fileID: 0}
  m_PrefabAsset: {fileID: 0}
  m_GameObject: {fileID: 3807745228882858680}
  m_Enabled: 1
  m_CastShadows: 0
  m_ReceiveShadows: 0
  m_DynamicOccludee: 1
  m_StaticShadowCaster: 0
  m_MotionVectors: 1
  m_LightProbeUsage: 1
  m_ReflectionProbeUsage: 1
  m_RayTracingMode: 2
  m_RayTraceProcedural: 0
  m_RenderingLayerMask: 1
  m_RendererPriority: 0
  m_Materials:
  - {fileID: 2100000, guid: 711a5d9e8e46944a9b563c2f95fd9714, type: 2}
  m_StaticBatchInfo:
    firstSubMesh: 0
    subMeshCount: 0
  m_StaticBatchRoot: {fileID: 0}
  m_ProbeAnchor: {fileID: 0}
  m_LightProbeVolumeOverride: {fileID: 0}
  m_ScaleInLightmap: 1
  m_ReceiveGI: 1
  m_PreserveUVs: 0
  m_IgnoreNormalsForChartDetection: 0
  m_ImportantGI: 0
  m_StitchLightmapSeams: 1
  m_SelectedEditorRenderState: 3
  m_MinimumChartSize: 4
  m_AutoUVMaxDistance: 0.5
  m_AutoUVMaxAngle: 89
  m_LightmapParameters: {fileID: 0}
  m_SortingLayerID: 0
  m_SortingLayer: 0
  m_SortingOrder: 0
  m_AdditionalVertexStreams: {fileID: 0}
--- !u!135 &1253170219338843212
SphereCollider:
  m_ObjectHideFlags: 0
  m_CorrespondingSourceObject: {fileID: 0}
  m_PrefabInstance: {fileID: 0}
  m_PrefabAsset: {fileID: 0}
  m_GameObject: {fileID: 3807745228882858680}
  m_Material: {fileID: 0}
  m_IsTrigger: 0
  m_Enabled: 1
  serializedVersion: 2
  m_Radius: 0.5
  m_Center: {x: 0, y: 0, z: 0}
--- !u!1001 &3069019435620665850
PrefabInstance:
  m_ObjectHideFlags: 0
  serializedVersion: 2
  m_Modification:
    m_TransformParent: {fileID: 0}
    m_Modifications:
    - target: {fileID: 1976981633336285768, guid: b42c1f12c1b3846989f6c3eb6fb55528, type: 3}
      propertyPath: m_Name
      value: SkySun
      objectReference: {fileID: 0}
    - target: {fileID: 4381200545032117862, guid: b42c1f12c1b3846989f6c3eb6fb55528, type: 3}
      propertyPath: m_Coordinate.Radius
      value: 2.2
      objectReference: {fileID: 0}
    - target: {fileID: 7623361977904843036, guid: b42c1f12c1b3846989f6c3eb6fb55528, type: 3}
      propertyPath: m_RootOrder
      value: 0
      objectReference: {fileID: 0}
    - target: {fileID: 7623361977904843036, guid: b42c1f12c1b3846989f6c3eb6fb55528, type: 3}
      propertyPath: m_LocalPosition.x
      value: -2.2
      objectReference: {fileID: 0}
    - target: {fileID: 7623361977904843036, guid: b42c1f12c1b3846989f6c3eb6fb55528, type: 3}
      propertyPath: m_LocalPosition.y
      value: -0.00000009616505
      objectReference: {fileID: 0}
    - target: {fileID: 7623361977904843036, guid: b42c1f12c1b3846989f6c3eb6fb55528, type: 3}
      propertyPath: m_LocalPosition.z
      value: -0
      objectReference: {fileID: 0}
    - target: {fileID: 7623361977904843036, guid: b42c1f12c1b3846989f6c3eb6fb55528, type: 3}
      propertyPath: m_LocalRotation.w
      value: 1
      objectReference: {fileID: 0}
    - target: {fileID: 7623361977904843036, guid: b42c1f12c1b3846989f6c3eb6fb55528, type: 3}
      propertyPath: m_LocalRotation.x
      value: -0
      objectReference: {fileID: 0}
    - target: {fileID: 7623361977904843036, guid: b42c1f12c1b3846989f6c3eb6fb55528, type: 3}
      propertyPath: m_LocalRotation.y
      value: -0
      objectReference: {fileID: 0}
    - target: {fileID: 7623361977904843036, guid: b42c1f12c1b3846989f6c3eb6fb55528, type: 3}
      propertyPath: m_LocalRotation.z
      value: -0
      objectReference: {fileID: 0}
    - target: {fileID: 7623361977904843036, guid: b42c1f12c1b3846989f6c3eb6fb55528, type: 3}
      propertyPath: m_LocalEulerAnglesHint.x
      value: 0
      objectReference: {fileID: 0}
    - target: {fileID: 7623361977904843036, guid: b42c1f12c1b3846989f6c3eb6fb55528, type: 3}
      propertyPath: m_LocalEulerAnglesHint.y
      value: 0
      objectReference: {fileID: 0}
    - target: {fileID: 7623361977904843036, guid: b42c1f12c1b3846989f6c3eb6fb55528, type: 3}
      propertyPath: m_LocalEulerAnglesHint.z
      value: 0
      objectReference: {fileID: 0}
    m_RemovedComponents: []
  m_SourcePrefab: {fileID: 100100000, guid: b42c1f12c1b3846989f6c3eb6fb55528, type: 3}
--- !u!1 &3600907971439858610 stripped
GameObject:
  m_CorrespondingSourceObject: {fileID: 1976981633336285768, guid: b42c1f12c1b3846989f6c3eb6fb55528, type: 3}
  m_PrefabInstance: {fileID: 3069019435620665850}
  m_PrefabAsset: {fileID: 0}
--- !u!114 &3780816513031448172
MonoBehaviour:
  m_ObjectHideFlags: 0
  m_CorrespondingSourceObject: {fileID: 0}
  m_PrefabInstance: {fileID: 0}
  m_PrefabAsset: {fileID: 0}
  m_GameObject: {fileID: 3600907971439858610}
  m_Enabled: 1
  m_EditorHideFlags: 0
  m_Script: {fileID: 11500000, guid: 0de8a79979daf42a0a769e9d40c67b9c, type: 3}
  m_Name: 
  m_EditorClassIdentifier: 
  m_AzimuthPeriod: 3600
  m_ZenithPeriod: 600
--- !u!114 &8899869393480421399
MonoBehaviour:
  m_ObjectHideFlags: 0
  m_CorrespondingSourceObject: {fileID: 0}
  m_PrefabInstance: {fileID: 0}
  m_PrefabAsset: {fileID: 0}
  m_GameObject: {fileID: 3600907971439858610}
  m_Enabled: 1
  m_EditorHideFlags: 0
  m_Script: {fileID: 11500000, guid: 1092011348c644dba9038aed204745c7, type: 3}
  m_Name: 
  m_EditorClassIdentifier: 
  m_OffColor: {r: 1, g: 0.07421358, b: 0.043735042, a: 1}
  m_OnColor: {r: 0.9528302, g: 0.91237986, b: 0.91237986, a: 1}
  m_PlayerCount: {fileID: 11400000, guid: 5707d8e6e5a97f740ba3d27d2b61bd8c, type: 2}
--- !u!4 &4853974119601684710 stripped
Transform:
  m_CorrespondingSourceObject: {fileID: 7623361977904843036, guid: b42c1f12c1b3846989f6c3eb6fb55528, type: 3}
  m_PrefabInstance: {fileID: 3069019435620665850}
  m_PrefabAsset: {fileID: 0}
